channel,event_volume,event_reach,event_converted_crn,medium_reach,medium_converted_crn,attributed_total_sales,attributed_inc_sales,attributed_inc_sales_percent
AlwaysOn_sem,37174.0,32346.0,4193,32346.0,4193,85103.15706810838,1795.7704637670329,0.08398854013962945
AlwaysOn_wow_web,578838.0,285820.0,27570,463178.0,44596,1431659.1559498461,25793.92616038076,1.2063870335272573
CVM-1661_FB,0.0,0.0,3292287,0.0,3292287,0.0,1185697.4818336691,55.455305984676194
CVM-1661_display,476354.0,305651.0,81215,497430.0,131166,2222869.610325115,34339.22848007731,1.6060525149260045
CVM-1661_email,311939.0,241454.0,1639594,439894.0,3241934,54830040.21165093,866845.1218188186,40.54251797637702
CVM-1661_rw_app,441339.0,284965.0,40321,393752.0,55726,1529797.180305323,23642.14815872928,1.1057479503539176
