,campaign_code,campaign_start_date,channel,medium,event,channel_event,channel_prob_norm_AL,channel_prob_norm_shanglin,attributed_inc_sales_AL,attributed_inc_sales_shanglin
0,CVM-1661,2021-04-28,CVM-1661_email,CVM-1661_email,CVM-1661_email_clk,CVM-1661_email_clk,,0.031210930146763453,,200.163804527482
1,CVM-1661,2021-04-28,CVM-1661_email,CVM-1661_email,CVM-1661_email_open,CVM-1661_email_open,0.030867571195265328,0.27906243425341437,21855.241370863678,22021.867845094683
2,CVM-1661,2021-04-28,CVM-1661_email,CVM-1661_email,CVM-1661_email_open,DEFAULT,,,872614.3588589295,872614.358858931
3,CVM-1661,2021-04-28,CVM-1661_rw_app,CVM-1661_rw_app,CVM-1661_rw_app_clk,CVM-1661_rw_app_clk,0.008453124735382806,0.007208133150391387,55.853485535126694,86.47747526359636
4,CVM-1661,2021-04-28,CVM-1661_rw_app,CVM-1661_rw_app,CVM-1661_rw_app_imp,CVM-1661_rw_app_imp,0.1120098757430353,0.05586303191553323,11113.681260859415,10785.906785405536
5,CVM-1661,2021-04-28,AlwaysOn_display,AlwaysOn_display,AlwaysOn_display_imp,_AlwaysOn_display_imp,0.0010274105496629008,0.002033584861685426,66.20012044704413,66.5903579175766
6,CVM-1661,2021-04-28,AlwaysOn_sem,AlwaysOn_sem_brand,AlwaysOn_sem_brand_clk,_AlwaysOn_sem_brand_clk,0.003516846213123703,0.003971203767206804,147.67973462583143,147.53781131046242
7,CVM-1661,2021-04-28,AlwaysOn_sem,AlwaysOn_sem_shopping,AlwaysOn_sem_shopping_clk,_AlwaysOn_sem_shopping_clk,0.03253943361043213,0.03773683207099507,1678.291401989247,1645.22824603782
8,CVM-1661,2021-04-28,,,AlwaysOn_video_imp,_AlwaysOn_video_imp,0.0007128327091635006,0.001016291737281511,70.03826155732875,69.64634364435611
9,CVM-1661,2021-04-28,AlwaysOn_wow_web,AlwaysOn_wow_web,AlwaysOn_wow_web_clk,_AlwaysOn_wow_web_clk,0.10372378212896,0.15462304662859827,3644.5667644872283,2532.704261086171
10,CVM-1661,2021-04-28,AlwaysOn_wow_web,AlwaysOn_wow_web,AlwaysOn_wow_web_view,_AlwaysOn_wow_web_view,0.16582426195756914,0.4272675491379624,27087.809536496112,28167.01903814331
11,CVM-1661,2021-05-05,CVM-1661_email,CVM-1661_email,CVM-1661_email_clk,CVM-1661_email_clk,0.03434268399795313,0.02978637359488632,188.3148080643595,97.97968118816289
12,CVM-1661,2021-05-05,CVM-1661_email,CVM-1661_email,CVM-1661_email_open,CVM-1661_email_open,0.19171767569271927,0.345702457177014,10071.68886674086,10145.316598864647
13,CVM-1661,2021-05-05,CVM-1661_email,CVM-1661_email,CVM-1661_email_open,DEFAULT,,,539160.3509464414,539160.3509464415
14,CVM-1661,2021-05-05,CVM-1661_rw_app,CVM-1661_rw_app,CVM-1661_rw_app_clk,CVM-1661_rw_app_clk,0.010609167470229209,0.004629569612298743,30.21322964548837,18.28106409913496
15,CVM-1661,2021-05-05,CVM-1661_rw_app,CVM-1661_rw_app,CVM-1661_rw_app_imp,CVM-1661_rw_app_imp,0.07125926794708967,0.07870268340907863,2340.6112197805674,2326.7753239934154
16,CVM-1661,2021-05-05,AlwaysOn_sem,AlwaysOn_sem_brand,AlwaysOn_sem_brand_clk,_AlwaysOn_sem_brand_clk,,0.01104649221640014,,133.66808073202964
17,CVM-1661,2021-05-05,AlwaysOn_sem_other,AlwaysOn_sem_other,AlwaysOn_sem_other_clk,_AlwaysOn_sem_other_clk,,0.0009793919805373716,,21.75456053
18,CVM-1661,2021-05-05,AlwaysOn_sem,AlwaysOn_sem_shopping,AlwaysOn_sem_shopping_clk,_AlwaysOn_sem_shopping_clk,0.01179370029641191,0.03012891478317459,688.691921962653,689.6474789055164
19,CVM-1661,2021-05-05,AlwaysOn_video,AlwaysOn_video,AlwaysOn_video_imp,_AlwaysOn_video_imp,,0.0019597832808537006,,83.29014303618604
20,CVM-1661,2021-05-05,AlwaysOn_wow_web,AlwaysOn_wow_web,AlwaysOn_wow_web_clk,_AlwaysOn_wow_web_clk,0.07457193919566957,0.12148644366624566,1500.1046877174058,1113.3966298425612
21,CVM-1661,2021-05-05,AlwaysOn_wow_web,AlwaysOn_wow_web,AlwaysOn_wow_web_view,_AlwaysOn_wow_web_view,0.14703042655733253,0.3755708959682105,14952.169064822672,15377.162964440373
