,campaign_code,campaign_start_date,channel,medium,event,channel_event,channel_prob_norm_AL,channel_prob_norm_shanglin,attributed_inc_sales_AL,attributed_inc_sales_shanglin
0,CVM-1661,2021-02-10,CVM-1661_FB,CVM-1661_FB,CVM-1661_FB_impsclicks,,,0.14712388622515427,,18107.044347942923
1,CVM-1661,2021-02-10,CVM-1661_display,CVM-1661_display,CVM-1661_display_clk,CVM-1661_display_clk,,0.0010798248309961227,,0.13537738610772068
2,CVM-1661,2021-02-10,CVM-1661_display,CVM-1661_display,CVM-1661_display_imp,CVM-1661_display_imp,0.05581550802139033,0.09826405962064717,5583.267051170072,2382.88147316096
3,CVM-1661,2021-02-10,CVM-1661_email,CVM-1661_email,CVM-1661_email_clk,CVM-1661_email_clk,,0.0399076447641128,,32.250071760597855
4,CVM-1661,2021-02-10,CVM-1661_email,CVM-1661_email,CVM-1661_email_open,CVM-1661_email_open,0.012032085561497163,0.26795132913047165,5093.649729217565,2397.882871795043
5,CVM-1661,2021-02-10,CVM-1661_email,CVM-1661_email,CVM-1661_email_open,DEFAULT,,,133490.25887167605,62705.468077154714
6,CVM-1661,2021-02-10,CVM-1661_rw_app,CVM-1661_rw_app,CVM-1661_rw_app_clk,CVM-1661_rw_app_clk,,0.004165989339781753,,6.424644855165788
7,CVM-1661,2021-02-10,CVM-1661_rw_app,CVM-1661_rw_app,CVM-1661_rw_app_imp,CVM-1661_rw_app_imp,0.0628342245989305,0.08644427880047137,4693.596468129688,2400.4967175748825
8,CVM-1661,2021-02-10,AlwaysOn_sem,AlwaysOn_sem_brand,AlwaysOn_sem_brand_clk,_AlwaysOn_sem_brand_clk,,0.003197860058018383,,21.242716758768456
9,CVM-1661,2021-02-10,AlwaysOn_sem,AlwaysOn_sem_shopping,AlwaysOn_sem_shopping_clk,_AlwaysOn_sem_shopping_clk,0.010193850267379513,0.042652647738412555,353.79696733196397,300.9232746465065
10,CVM-1661,2021-02-10,AlwaysOn_wow_web,AlwaysOn_wow_web,AlwaysOn_wow_web_clk,_AlwaysOn_wow_web_clk,0.020721925133689666,0.11449151105210298,468.8320788002178,365.0467627388446
11,CVM-1661,2021-02-10,AlwaysOn_wow_web,AlwaysOn_wow_web,AlwaysOn_wow_web_view,_AlwaysOn_wow_web_view,0.055982620320855644,0.34183894014127886,5965.4682602965495,4808.16220735703
12,CVM-1661,2021-02-17,CVM-1661_FB,CVM-1661_FB,CVM-1661_FB_impsclicks,,,0.10191645226042356,,216598.64084282078
13,CVM-1661,2021-02-17,CVM-1661_FB,CVM-1661_FB,CVM-1661_FB_impsclicks,DEFAULT,,0.0,,839136.0792714322
14,CVM-1661,2021-02-17,CVM-1661_display,CVM-1661_display,CVM-1661_display_imp,CVM-1661_display_imp,0.12600267379679164,0.09261192159573169,33415.74590771379,27691.30925651976
15,CVM-1661,2021-02-17,CVM-1661_email,CVM-1661_email,CVM-1661_email_clk,CVM-1661_email_clk,0.08104946524064167,,2524.431869456187,
16,CVM-1661,2021-02-17,CVM-1661_email,CVM-1661_email,CVM-1661_email_open,CVM-1661_email_open,0.39438502673796866,0.018742091262299223,107417.86310584776,2476.053262279343
17,CVM-1661,2021-02-17,CVM-1661_email,CVM-1661_email,CVM-1661_email_open,DEFAULT,,,807822.3655678211,735675.0262891063
18,CVM-1661,2021-02-17,CVM-1661_rw_app,CVM-1661_rw_app,CVM-1661_rw_app_clk,CVM-1661_rw_app_clk,0.0071858288770052774,0.009347512273055875,199.4527876267165,114.4664168840202
19,CVM-1661,2021-02-17,CVM-1661_rw_app,CVM-1661_rw_app,CVM-1661_rw_app_imp,CVM-1661_rw_app_imp,0.06634358288770048,0.13398100924713421,22351.034152037508,20498.647579467986
20,CVM-1661,2021-02-17,AlwaysOn_sem,AlwaysOn_sem_brand,AlwaysOn_sem_brand_clk,_AlwaysOn_sem_brand_clk,,0.011024362742008279,,360.7190929343302
21,CVM-1661,2021-02-17,AlwaysOn_sem,AlwaysOn_sem_shopping,AlwaysOn_sem_shopping_clk,_AlwaysOn_sem_shopping_clk,0.011029411764705895,0.0507165849658685,2388.5622190047934,2924.058333855479
22,CVM-1661,2021-02-17,AlwaysOn_wow_web,AlwaysOn_wow_web,AlwaysOn_wow_web_clk,_AlwaysOn_wow_web_clk,0.029578877005347493,0.18082590250534045,4703.253129581884,4222.358783980839
23,CVM-1661,2021-02-17,AlwaysOn_wow_web,AlwaysOn_wow_web,AlwaysOn_wow_web_view,_AlwaysOn_wow_web_view,0.06684491978609622,0.5027446616740409,44037.811623882946,48985.02308088688
