event,channel_prob_norm_AL,channel_prob_norm_shanglin,attributed_inc_sales_AL,attributed_inc_sales_shanglin,attributed_inc_sales_safari
AlwaysOn_google_other_imp,0.0,0.004157520427481222,0.0,235.8373728721631,235.83737287216306
AlwaysOn_sem_brand_clk,0.0,0.010319191107346115,0.0,534.7586827595054,534.7586827595055
AlwaysOn_sem_shopping_clk,0.03918780571038553,0.08792068512268539,4440.496779312245,4453.191344176189,4453.191344176189
AlwaysOn_wow_web_clk,0.11409395973154357,0.29730455420826163,6271.267597090638,4546.440682551792,4546.440682551792
AlwaysOn_wow_web_view,0.25042657263110013,0.8975702892012649,59712.9528472566,62074.84127430343,62074.84127430334
CVM-1661_email_clk,0.04908429075190533,0.03678071032665535,736.3775724200001,441.3759973360175,441.37599733601763
CVM-1661_email_open,0.2544079171880333,0.4205360294053465,2394124.9370761034,2394313.3279444687,2394313.3279445097
CVM-1661_rw_app_clk,0.03048572403594582,0.014590884427864412,639.0411797327124,324.18346145373016,324.18346145373
CVM-1661_rw_app_imp,0.26231372995108637,0.2308082125467597,43531.184404084765,43304.2986220181,43304.29862201813
