event,channel_prob_norm_AL,channel_prob_norm_shanglin,attributed_inc_sales_AL,attributed_inc_sales_shanglin,attributed_inc_sales_safari
AlwaysOn_sem_brand_clk,0.0010809188994993458,0.014222222800026663,385.5160580073277,381.96180969309864,381.96180969309864
AlwaysOn_sem_shopping_clk,0.01786705616443354,0.09336923270428105,2679.4136064600425,3224.981608501985,3224.981608501985
AlwaysOn_wow_web_clk,0.08184154945245121,0.29531741355744345,5969.891911474375,4587.405546719683,4587.405546719684
AlwaysOn_wow_web_view,0.18003769241821443,0.8445836018153197,50579.91418544192,53793.18528824391,53793.1852882439
CVM-1661_FB_impsclicks,-1.0,0.24904033848557783,1059199.349321127,1073841.764462196,1073841.7644623176
CVM-1661_display_clk,0.000430937413691969,0.0010798248309961227,0.39672006714841,0.13537738610772068,0.1353773861077207
CVM-1661_display_imp,0.16624187642314062,0.19087598121637886,38403.532896417724,30074.190729680722,30074.190729680733
CVM-1661_email_clk,0.07404861496972019,0.0399076447641128,2665.695810677944,32.250071760597855,32.25007176059786
CVM-1661_email_open,0.3443978622482118,0.28669342039277085,1053009.2791815794,803254.4305003354,803254.4305003393
CVM-1661_rw_app_clk,0.010629042102609872,0.013513501612837629,227.94905609842954,120.891061739186,120.89106173918601
CVM-1661_rw_app_imp,0.12342444990802717,0.22042528804760558,26972.172170639853,22899.144297042872,22899.14429704287
