event,channel_prob_norm_AL,channel_prob_norm_shanglin,attributed_inc_sales_AL,attributed_inc_sales_shanglin,attributed_inc_sales_safari
AlwaysOn_sem_brand_clk,0.0,0.009767309294514142,0.0,690.3173409990045,690.3173409990047
AlwaysOn_sem_generic_clk,0.0,0.0009791943568470656,0.0,16.1483682441807,16.148368244180702
AlwaysOn_sem_shopping_clk,0.018867924528301838,0.03899772024825476,2614.2891325228356,3094.1239605011615,3094.1239605011606
AlwaysOn_wow_web_clk,0.04080737165423414,0.12653409010597402,4760.4590629571685,4948.862106285326,4948.862106285327
AlwaysOn_wow_web_view,0.12132514260640624,0.3607730926831749,51307.382589835775,54901.90567520149,54901.90567520155
CVM-1661_FB_impsclicks,0.0,0.7981323814951673,0.0,1566067.7057966755,1566067.7057926492
CVM-1661_display_imp,0.10465116279069758,0.08223142356097723,35265.18181948688,27597.55515709108,27597.55515709104
CVM-1661_email_clk,0.050680122860903905,0.10673653519294912,1143.5448540263033,1275.8153055882963,1275.815305588296
CVM-1661_email_open,0.5243527863097854,1.137930339095919,1573732.2190287285,1397176.0860995902,1397176.0860995976
CVM-1661_rw_app_clk,0.0028521281263711442,0.012002073996500641,102.18450470164538,202.04497840238614,202.04497840238616
CVM-1661_rw_app_imp,0.13646336112329965,0.12403640488486811,45884.65259237609,36923.88388730716,36923.88388730715
