event,channel_prob_norm_AL,channel_prob_norm_shanglin,attributed_inc_sales_AL,attributed_inc_sales_shanglin,attributed_inc_sales_safari
AlwaysOn_sem_brand_clk,0.0028521564815182036,0.0057931129379543145,174.2803348027509,136.96193767523636,136.96193767523636
AlwaysOn_sem_generic_clk,0.0005079954550112007,0.0010627825291153832,30.12534002124522,15.278901808696524,15.278901808696524
AlwaysOn_sem_shopping_clk,0.027636032763102236,0.06449406174107145,1504.0214981735473,1388.2916944847889,1388.2916944847893
AlwaysOn_wow_web_clk,0.09356722454583022,0.16357071337840218,1986.1505951990955,1313.9959911374367,1313.9959911374367
AlwaysOn_wow_web_view,0.2279906054083743,0.6362964599679772,23990.567188780453,22470.361063474043,22470.361063474033
CVM-1661_FB_impsclicks,0.0,0.4133071914543264,0.0,883377.4442529198,883377.4442534847
CVM-1661_display_clk,0.0012625304682170018,0.0,1.3438446192977491,0.0,
CVM-1661_display_imp,0.18695704247014344,0.1390890605109904,20449.376566736464,25262.84439875593,25262.84439875593
CVM-1661_email_clk,0.039522215811066054,0.08752790448584391,472.63360359625386,485.75383368780933,485.7538336878092
CVM-1661_email_open,0.2090283294868521,0.7494952494340177,976797.3530158815,721741.6692944885,721741.6692944864
CVM-1661_rw_app_clk,0.01550119262464302,0.009667132198913651,109.64390120929718,78.88613058394326,78.88613058394324
CVM-1661_rw_app_imp,0.19517467448524245,0.14299159589913818,24181.15507896456,18071.231998821546,18071.231998821557
