,path,total_conversion_value,conversions,non_conversions,cnt,ppl,Converted
0,OSP-2373_rw_app_imp_2021-05-19_2021-05-23 > OSP-2373_rw_app_clk_2021-05-19_2021-05-23 > OSP-2373_email_open_2021-05-19_2021-05-23 > OSP-2373_email_clk_2021-05-19_2021-05-23,12187.713140735,220.0,134.0,211,211,False
1,_AlwaysOn_wow_web_view_2021-05-12_2021-05-18 > _AlwaysOn_wow_web_clk_2021-05-12_2021-05-18,49229.746873535,564.0,222.0,5871,5871,False
2,_AlwaysOn_sem_shopping_clk_2021-05-12_2021-05-18,9966.8569627311,258.0,160.0,8617,8617,False
3,OSP-2373_rw_app_clk_2021-05-19_2021-05-23,205660.5537032,5370.0,4146.0,7542,7542,False
4,_AlwaysOn_wow_web_view_2021-05-12_2021-05-18 > _AlwaysOn_sem_shopping_clk_2021-05-12_2021-05-18,1315.9050400006,20.0,16.0,231,231,False
5,_AlwaysOn_sem_shopping_clk_2021-05-19_2021-05-23 > OSP-2373_email_open_2021-05-19_2021-05-23,600.91570125961,30.0,40.0,189,189,False
6,FB_Impression > _AlwaysOn_wow_web_view_2021-05-19_2021-05-23,30282.916717417,474.0,420.0,1807,1807,False
7,OSP-2373_rw_app_imp_2021-05-12_2021-05-18 > CVM-1661_rw_app_imp_2021-05-19_2021-05-23 > CVM-1661_rw_app_imp_2021-05-12_2021-05-18,2772.6291206312,80.0,68.0,106,106,False
8,_AlwaysOn_wow_web_clk_2021-05-19_2021-05-23 > OSP-2373_email_open_2021-05-19_2021-05-23,29281.005527534,288.0,162.0,281,281,False
9,_AlwaysOn_wow_web_view_2021-05-12_2021-05-18 > _AlwaysOn_wow_web_view_2021-05-12_2021-05-18 > _AlwaysOn_wow_web_clk_2021-05-12_2021-05-18,-2412.9552032868,16.0,12.0,126,126,False
10,FB_Impression > _AlwaysOn_sem_shopping_clk_2021-05-12_2021-05-18,3031.8582588468,50.0,18.0,378,378,False
11,FB_Impression > OSP-2373_rw_app_imp_2021-05-12_2021-05-18 > OSP-2373_rw_app_clk_2021-05-12_2021-05-18,-1912.9404206364,88.0,88.0,165,165,False
12,OSP-2373_rw_app_imp_2021-05-12_2021-05-18 > CVM-1661_rw_app_imp_2021-05-12_2021-05-18,5710.7192881515,166.0,156.0,501,501,False
13,OSP-2373_email_open_2021-05-12_2021-05-18 > OSP-2373_email_clk_2021-05-19_2021-05-23,34276.299906835,1122.0,890.0,1702,1702,False
14,OSP-2373_email_open_2021-05-19_2021-05-23 > CVM-1661_rw_app_imp_2021-05-12_2021-05-18,1821.3738581405,48.0,40.0,149,149,False
15,OSP-2373_rw_app_imp_2021-05-12_2021-05-18 > CVM-1661_rw_app_imp_2021-05-19_2021-05-23,9059.239370983,224.0,186.0,330,330,False
16,FB_Impression > OSP-2373_rw_app_imp_2021-05-12_2021-05-18 > OSP-2373_email_open_2021-05-19_2021-05-23 > OSP-2373_email_clk_2021-05-19_2021-05-23,2118.0367128726,92.0,64.0,109,109,False
17,OSP-2373_rw_app_clk_2021-05-12_2021-05-18,45545.601845083,1422.0,1080.0,2512,2512,False
18,_AlwaysOn_sem_generic_clk_2021-05-12_2021-05-18,1599.634545452,6.0,2.0,166,166,False
19,OSP-2373_rw_app_imp_2021-05-19_2021-05-23 > OSP-2373_rw_app_imp_2021-05-12_2021-05-18,383302.40020693,15938.0,13646.0,32545,32545,False
20,_AlwaysOn_wow_web_view_2021-05-12_2021-05-18 > OSP-2373_email_open_2021-05-19_2021-05-23,14700.583771087,148.0,90.0,1018,1018,False
21,_AlwaysOn_sem_brand_clk_2021-05-12_2021-05-18,1010.9734395849,44.0,32.0,1293,1293,False
22,FB_Impression > OSP-2373_rw_app_imp_2021-05-12_2021-05-18,8055.4218089519,1150.0,1026.0,2102,2102,False
23,_AlwaysOn_wow_web_view_2021-05-12_2021-05-18 > _AlwaysOn_wow_web_clk_2021-05-19_2021-05-23 > _AlwaysOn_wow_web_clk_2021-05-12_2021-05-18,9995.7664078802,92.0,32.0,190,190,False
24,_AlwaysOn_sem_shopping_clk_2021-05-12_2021-05-18 > OSP-2373_email_open_2021-05-19_2021-05-23 > OSP-2373_email_clk_2021-05-19_2021-05-23,2164.7392080498,50.0,44.0,174,174,False
25,FB_Impression > OSP-2373_rw_app_imp_2021-05-19_2021-05-23 > OSP-2373_email_open_2021-05-19_2021-05-23,18911.576559271,466.0,416.0,664,664,False
26,OSP-2373_rw_app_imp_2021-05-19_2021-05-23 > OSP-2373_rw_app_clk_2021-05-19_2021-05-23,153609.49909681,3430.0,2400.0,6311,6311,False
27,OSP-2373_email_open_2021-05-12_2021-05-18 > OSP-2373_email_clk_2021-05-19_2021-05-23 > OSP-2373_email_clk_2021-05-12_2021-05-18,1753.9777769644,112.0,84.0,218,218,False
28,OSP-2373_rw_app_imp_2021-05-12_2021-05-18 > OSP-2373_email_open_2021-05-19_2021-05-23 > OSP-2373_email_open_2021-05-12_2021-05-18,5037.7015515066,126.0,122.0,170,170,False
29,FB_Impression > OSP-2373_rw_app_imp_2021-05-19_2021-05-23 > OSP-2373_rw_app_imp_2021-05-12_2021-05-18 > OSP-2373_email_open_2021-05-19_2021-05-23 > OSP-2373_email_clk_2021-05-19_2021-05-23,9429.6567329085,130.0,94.0,111,111,False
30,FB_Impression > FB_Click > FB_Impression > OSP-2373_email_open_2021-05-19_2021-05-23 > OSP-2373_email_clk_2021-05-19_2021-05-23,2639.0775890532,66.0,72.0,112,112,False
31,OSP-2373_rw_app_imp_2021-05-19_2021-05-23 > OSP-2373_rw_app_imp_2021-05-12_2021-05-18 > OSP-2373_rw_app_clk_2021-05-12_2021-05-18 > OSP-2373_email_open_2021-05-19_2021-05-23,7168.8825455836,280.0,172.0,239,239,False
32,FB_Impression > OSP-2373_email_open_2021-05-19_2021-05-23,62663.313317745,1872.0,1858.0,6363,6363,False
33,OSP-2373_email_clk_2021-05-19_2021-05-23,1491437.3831181,39707.0,33218.0,57645,57645,False
34,_AlwaysOn_sem_shopping_clk_2021-05-12_2021-05-18 > OSP-2373_rw_app_imp_2021-05-19_2021-05-23 > OSP-2373_rw_app_imp_2021-05-12_2021-05-18,1146.6590572892,18.0,22.0,112,112,False
35,OSP-2373_rw_app_imp_2021-05-19_2021-05-23 > OSP-2373_rw_app_imp_2021-05-12_2021-05-18 > OSP-2373_email_open_2021-05-19_2021-05-23,57022.225200931,1796.0,1430.0,2631,2631,False
36,FB_Impression > OSP-2373_rw_app_imp_2021-05-19_2021-05-23 > OSP-2373_rw_app_imp_2021-05-12_2021-05-18 > OSP-2373_rw_app_clk_2021-05-12_2021-05-18,13432.286618599,330.0,324.0,306,306,False
37,OSP-2373_rw_app_clk_2021-05-12_2021-05-18 > OSP-2373_email_open_2021-05-19_2021-05-23 > OSP-2373_email_clk_2021-05-19_2021-05-23,-1249.7421493618,102.0,100.0,133,133,False
38,OSP-2373_rw_app_imp_2021-05-12_2021-05-18 > OSP-2373_email_open_2021-05-19_2021-05-23 > CVM-1661_rw_app_imp_2021-05-19_2021-05-23,2478.4988619721,122.0,118.0,165,165,False
39,OSP-2373_rw_app_clk_2021-05-12_2021-05-18 > OSP-2373_email_open_2021-05-19_2021-05-23,-137.76150910491,182.0,172.0,277,277,False
40,OSP-2373_rw_app_imp_2021-05-19_2021-05-23 > OSP-2373_email_open_2021-05-19_2021-05-23 > OSP-2373_email_clk_2021-05-19_2021-05-23,31813.442881631,1112.0,958.0,1711,1711,False
41,_AlwaysOn_wow_web_clk_2021-05-19_2021-05-23 > OSP-2373_rw_app_imp_2021-05-19_2021-05-23,42530.556031467,474.0,290.0,368,368,False
42,OSP-2373_rw_app_imp_2021-05-12_2021-05-18 > OSP-2373_rw_app_clk_2021-05-12_2021-05-18,98953.967425492,3606.0,2952.0,4879,4879,False
43,FB_Impression > _AlwaysOn_wow_web_view_2021-05-12_2021-05-18 > _AlwaysOn_wow_web_clk_2021-05-12_2021-05-18,22779.447078575,206.0,88.0,1072,1072,False
44,CVM-1661_email_open_2021-05-19_2021-05-23,537.6401541926,12.0,8.0,694,694,False
45,OSP-2373_rw_app_imp_2021-05-19_2021-05-23 > OSP-2373_rw_app_imp_2021-05-12_2021-05-18 > OSP-2373_email_open_2021-05-19_2021-05-23 > OSP-2373_email_clk_2021-05-19_2021-05-23,4103.5327681429,604.0,598.0,767,767,False
46,FB_Impression,435717.38153675,11890.0,11950.0,102006,102006,False
47,OSP-2373_email_open_2021-05-19_2021-05-23 > OSP-2373_email_open_2021-05-19_2021-05-23,15963.156785581,422.0,354.0,479,479,False
48,OSP-2373_email_open_2021-05-19_2021-05-23 > OSP-2373_email_open_2021-05-19_2021-05-23 > OSP-2373_email_clk_2021-05-19_2021-05-23,13561.741099996,314.0,240.0,328,328,False
49,FB_Impression > FB_Click > FB_Impression > OSP-2373_rw_app_imp_2021-05-19_2021-05-23 > OSP-2373_rw_app_imp_2021-05-12_2021-05-18,4911.4802440761,136.0,118.0,140,140,False
50,OSP-2373_email_open_2021-05-19_2021-05-23 > CVM-1661_rw_app_imp_2021-05-19_2021-05-23,13482.034141268,360.0,316.0,778,778,False
51,OSP-2373_rw_app_imp_2021-05-19_2021-05-23 > OSP-2373_rw_app_imp_2021-05-19_2021-05-23 > OSP-2373_rw_app_imp_2021-05-12_2021-05-18,8587.2425202622,104.0,84.0,172,172,False
52,OSP-2373_email_open_2021-05-19_2021-05-23 > OSP-2373_email_clk_2021-05-19_2021-05-23,1005668.0408008,22627.0,18194.0,54062,54062,False
53,OSP-2373_rw_app_imp_2021-05-12_2021-05-18 > OSP-2373_rw_app_clk_2021-05-19_2021-05-23 > OSP-2373_email_open_2021-05-19_2021-05-23 > OSP-2373_email_clk_2021-05-19_2021-05-23,8273.7977766108,296.0,232.0,227,227,False
54,FB_Impression > OSP-2373_rw_app_imp_2021-05-19_2021-05-23 > OSP-2373_rw_app_imp_2021-05-12_2021-05-18 > OSP-2373_rw_app_clk_2021-05-19_2021-05-23,15117.847087043,512.0,412.0,401,401,False
55,OSP-2373_rw_app_imp_2021-05-19_2021-05-23 > OSP-2373_rw_app_imp_2021-05-12_2021-05-18 > OSP-2373_rw_app_clk_2021-05-19_2021-05-23,97150.258968692,2946.0,2268.0,2979,2979,False
56,OSP-2373_email_open_2021-05-19_2021-05-23 > OSP-2373_email_open_2021-05-12_2021-05-18,47853.007897185,1058.0,908.0,4352,4352,False
57,_AlwaysOn_wow_web_view_2021-05-12_2021-05-18 > _AlwaysOn_wow_web_clk_2021-05-12_2021-05-18 > OSP-2373_email_open_2021-05-19_2021-05-23,3241.2051682659,40.0,26.0,245,245,False
58,FB_Impression > _AlwaysOn_wow_web_view_2021-05-19_2021-05-23 > _AlwaysOn_wow_web_clk_2021-05-19_2021-05-23 > OSP-2373_rw_app_imp_2021-05-19_2021-05-23,14189.143428183,118.0,86.0,101,101,False
59,OSP-2373_rw_app_clk_2021-05-19_2021-05-23 > OSP-2373_email_open_2021-05-19_2021-05-23 > OSP-2373_email_clk_2021-05-19_2021-05-23,16848.967267286,458.0,356.0,416,416,False
60,OSP-2373_email_open_2021-05-19_2021-05-23 > OSP-2373_email_open_2021-05-12_2021-05-18 > OSP-2373_email_clk_2021-05-19_2021-05-23,19072.618567034,716.0,578.0,1369,1369,False
61,OSP-2373_rw_app_imp_2021-05-12_2021-05-18 > OSP-2373_email_open_2021-05-19_2021-05-23 > OSP-2373_email_open_2021-05-19_2021-05-23,8399.9174659427,90.0,80.0,125,125,False
62,_AlwaysOn_wow_web_view_2021-05-19_2021-05-23 > _AlwaysOn_wow_web_clk_2021-05-19_2021-05-23 > OSP-2373_email_open_2021-05-19_2021-05-23,16926.12426553,104.0,64.0,166,166,False
63,OSP-2373_email_open_2021-05-19_2021-05-23 > OSP-2373_email_open_2021-05-12_2021-05-18 > OSP-2373_email_clk_2021-05-12_2021-05-18,-2237.1374003039,26.0,20.0,132,132,False
64,_AlwaysOn_sem_shopping_clk_2021-05-12_2021-05-18 > OSP-2373_rw_app_imp_2021-05-12_2021-05-18,1094.3222745856,14.0,14.0,119,119,False
65,_AlwaysOn_wow_web_view_2021-05-12_2021-05-18 > OSP-2373_rw_app_imp_2021-05-19_2021-05-23 > OSP-2373_rw_app_imp_2021-05-12_2021-05-18,2238.3577286072,62.0,46.0,202,202,False
66,OSP-2373_email_open_2021-05-19_2021-05-23 > OSP-2373_email_open_2021-05-12_2021-05-18 > OSP-2373_email_clk_2021-05-19_2021-05-23 > OSP-2373_email_clk_2021-05-12_2021-05-18,837.22222431415,50.0,32.0,143,143,False
67,_AlwaysOn_wow_web_view_2021-05-19_2021-05-23 > _AlwaysOn_wow_web_clk_2021-05-19_2021-05-23 > OSP-2373_rw_app_imp_2021-05-19_2021-05-23,15137.928719412,190.0,94.0,206,206,False
68,OSP-2373_rw_web_oap_clk_2021-05-12_2021-05-18 > OSP-2373_email_open_2021-05-19_2021-05-23,5103.5219321131,128.0,108.0,237,237,False
69,FB_Impression > _AlwaysOn_sem_shopping_clk_2021-05-19_2021-05-23,2140.2168705298,50.0,42.0,199,199,False
70,_AlwaysOn_sem_shopping_clk_2021-05-12_2021-05-18 > OSP-2373_rw_app_imp_2021-05-19_2021-05-23,-100.06878514127,42.0,46.0,322,322,False
71,OSP-2373_rw_app_imp_2021-05-12_2021-05-18 > OSP-2373_email_open_2021-05-19_2021-05-23,79752.820017767,3564.0,3060.0,5715,5715,False
72,_AlwaysOn_sem_brand_clk_2021-05-12_2021-05-18 > OSP-2373_email_open_2021-05-19_2021-05-23,372.27229403093,12.0,8.0,127,127,False
73,FB_Impression > OSP-2373_rw_app_imp_2021-05-19_2021-05-23,162295.10756621,3962.0,3458.0,6996,6996,False
74,OSP-2373_rw_app_imp_2021-05-19_2021-05-23,985230.57033772,24728.0,21834.0,136920,136920,False
75,FB_Impression > _AlwaysOn_wow_web_view_2021-05-12_2021-05-18 > OSP-2373_email_open_2021-05-19_2021-05-23,1848.4120576522,40.0,26.0,188,188,False
76,_AlwaysOn_wow_web_clk_2021-05-12_2021-05-18 > OSP-2373_email_open_2021-05-19_2021-05-23,5988.2756782051,60.0,36.0,253,253,False
77,OSP-2373_email_open_2021-05-12_2021-05-18 > OSP-2373_email_clk_2021-05-12_2021-05-18,7148.475398725,122.0,94.0,629,629,False
78,_AlwaysOn_wow_web_view_2021-05-12_2021-05-18 > _AlwaysOn_wow_web_clk_2021-05-19_2021-05-23,23942.436855166,194.0,46.0,377,377,False
79,_AlwaysOn_wow_web_clk_2021-05-12_2021-05-18 > OSP-2373_rw_app_imp_2021-05-12_2021-05-18,4065.6731431965,84.0,30.0,132,132,False
80,OSP-2373_rw_app_imp_2021-05-12_2021-05-18 > OSP-2373_rw_app_imp_2021-05-12_2021-05-18,10870.53279217,590.0,480.0,499,499,False
81,OSP-2373_rw_app_imp_2021-05-19_2021-05-23 > OSP-2373_rw_app_imp_2021-05-12_2021-05-18 > CVM-1661_rw_app_imp_2021-05-19_2021-05-23,3831.1231000463,146.0,146.0,227,227,False
82,OSP-2373_rw_app_imp_2021-05-19_2021-05-23 > CVM-1661_rw_app_imp_2021-05-19_2021-05-23,6551.1389124161,236.0,286.0,762,762,False
83,CVM-1661_rw_app_imp_2021-05-12_2021-05-18,4652.6795920071,194.0,188.0,501,501,False
84,OSP-2373_rw_web_oap_clk_2021-05-19_2021-05-23 > OSP-2373_email_open_2021-05-19_2021-05-23,2233.2335235096,70.0,56.0,150,150,False
85,FB_Impression > _AlwaysOn_wow_web_view_2021-05-19_2021-05-23 > _AlwaysOn_wow_web_view_2021-05-12_2021-05-18,2625.9218913376,48.0,40.0,361,361,False
86,OSP-2373_rw_app_imp_2021-05-19_2021-05-23 > OSP-2373_email_open_2021-05-19_2021-05-23 > CVM-1661_rw_app_imp_2021-05-19_2021-05-23,3284.4377128156,110.0,98.0,267,267,False
87,OSP-2373_rw_app_clk_2021-05-19_2021-05-23 > OSP-2373_rw_app_clk_2021-05-12_2021-05-18,165.29781178615,122.0,98.0,169,169,False
88,_AlwaysOn_video_imp_2021-05-19_2021-05-23,1249.3545312076,10.0,6.0,266,266,False
89,OSP-2373_rw_app_imp_2021-05-12_2021-05-18 > OSP-2373_rw_app_clk_2021-05-12_2021-05-18 > OSP-2373_email_open_2021-05-19_2021-05-23,6627.0063660669,546.0,430.0,578,578,False
90,OSP-2373_rw_web_oap_clk_2021-05-12_2021-05-18 > OSP-2373_email_open_2021-05-19_2021-05-23 > OSP-2373_email_clk_2021-05-19_2021-05-23,4220.7224135604,90.0,78.0,137,137,False
91,FB_Impression > _AlwaysOn_wow_web_view_2021-05-12_2021-05-18 > OSP-2373_rw_app_imp_2021-05-19_2021-05-23,3233.3772438183,42.0,22.0,148,148,False
92,OSP-2373_rw_app_imp_2021-05-19_2021-05-23 > OSP-2373_rw_app_imp_2021-05-12_2021-05-18 > OSP-2373_rw_app_clk_2021-05-19_2021-05-23 > OSP-2373_email_open_2021-05-19_2021-05-23 > OSP-2373_email_clk_2021-05-19_2021-05-23,2856.4497549189,124.0,100.0,107,107,False
93,FB_Impression > FB_Click > FB_Impression,-7521.2657841251,242.0,256.0,1101,1101,False
94,FB_Impression > OSP-2373_rw_app_imp_2021-05-19_2021-05-23 > OSP-2373_email_open_2021-05-19_2021-05-23 > OSP-2373_email_clk_2021-05-19_2021-05-23,14938.761043881,234.0,218.0,266,266,False
95,OSP-2373_email_open_2021-05-19_2021-05-23,775643.98713477,25712.0,24188.0,259152,259152,False
96,OSP-2373_email_open_2021-05-19_2021-05-23 > OSP-2373_email_clk_2021-05-19_2021-05-23 > CVM-1661_rw_app_imp_2021-05-19_2021-05-23,8455.3140763913,270.0,232.0,394,394,False
97,_AlwaysOn_wow_web_view_2021-05-19_2021-05-23 > _AlwaysOn_wow_web_view_2021-05-12_2021-05-18 > _AlwaysOn_wow_web_clk_2021-05-12_2021-05-18,-401.82147015419,12.0,8.0,122,122,False
98,_AlwaysOn_wow_web_view_2021-05-19_2021-05-23 > _AlwaysOn_wow_web_view_2021-05-12_2021-05-18,20300.694069385,110.0,54.0,1382,1382,False
99,CVM-1661_rw_app_imp_2021-05-19_2021-05-23,32693.73778919,1002.0,992.0,2662,2662,False
100,_AlwaysOn_wow_web_view_2021-05-12_2021-05-18 > OSP-2373_email_open_2021-05-19_2021-05-23 > OSP-2373_email_clk_2021-05-19_2021-05-23,15410.972667198,140.0,64.0,363,363,False
101,FB_Impression > OSP-2373_rw_app_imp_2021-05-19_2021-05-23 > OSP-2373_rw_app_imp_2021-05-12_2021-05-18 > OSP-2373_email_open_2021-05-19_2021-05-23,11541.199866289,362.0,304.0,359,359,False
102,OSP-2373_rw_app_imp_2021-05-19_2021-05-23 > OSP-2373_rw_app_imp_2021-05-12_2021-05-18 > OSP-2373_rw_app_clk_2021-05-19_2021-05-23 > OSP-2373_rw_app_clk_2021-05-12_2021-05-18,18990.050808229,990.0,714.0,714,714,False
103,_AlwaysOn_sem_other_clk_2021-05-19_2021-05-23,753.4616920871,10.0,8.0,105,105,False
104,FB_Impression > OSP-2373_rw_app_imp_2021-05-12_2021-05-18 > OSP-2373_email_open_2021-05-19_2021-05-23,6698.0684818868,120.0,100.0,187,187,False
105,FB_Impression > OSP-2373_email_open_2021-05-19_2021-05-23 > OSP-2373_email_open_2021-05-12_2021-05-18,3049.0061823114,90.0,74.0,190,190,False
106,OSP-2373_rw_app_imp_2021-05-19_2021-05-23 > OSP-2373_rw_app_imp_2021-05-12_2021-05-18 > OSP-2373_email_open_2021-05-19_2021-05-23 > CVM-1661_rw_app_imp_2021-05-19_2021-05-23,-779.62737538658,54.0,52.0,104,104,False
107,_AlwaysOn_wow_web_view_2021-05-19_2021-05-23 > OSP-2373_rw_app_imp_2021-05-19_2021-05-23,22720.338444824,224.0,152.0,408,408,False
108,_AlwaysOn_display_imp_2021-05-19_2021-05-23,-111.04125165818,12.0,6.0,166,166,False
109,_AlwaysOn_wow_web_view_2021-05-12_2021-05-18 > _AlwaysOn_wow_web_clk_2021-05-12_2021-05-18 > OSP-2373_rw_app_imp_2021-05-19_2021-05-23,-16.603831117466,42.0,30.0,151,151,False
110,OSP-2373_rw_app_imp_2021-05-12_2021-05-18 > OSP-2373_rw_app_clk_2021-05-19_2021-05-23 > OSP-2373_rw_app_clk_2021-05-12_2021-05-18 > OSP-2373_email_open_2021-05-19_2021-05-23,9733.6325834979,306.0,208.0,186,186,False
111,OSP-2373_rw_app_clk_2021-05-19_2021-05-23 > OSP-2373_email_open_2021-05-19_2021-05-23,17581.754875321,808.0,606.0,943,943,False
112,_AlwaysOn_wow_web_view_2021-05-12_2021-05-18 > _AlwaysOn_wow_web_clk_2021-05-12_2021-05-18 > OSP-2373_rw_app_imp_2021-05-12_2021-05-18,871.44950329345,38.0,20.0,118,118,False
113,_AlwaysOn_sem_other_clk_2021-05-12_2021-05-18,867.55471320469,10.0,8.0,154,154,False
114,FB_Impression > _AlwaysOn_wow_web_view_2021-05-19_2021-05-23 > OSP-2373_rw_app_imp_2021-05-19_2021-05-23,13496.584248876,174.0,150.0,196,196,False
115,FB_Impression > OSP-2373_rw_app_imp_2021-05-19_2021-05-23 > OSP-2373_rw_app_imp_2021-05-12_2021-05-18,96269.749375553,2900.0,2532.0,3456,3456,False
116,_AlwaysOn_wow_web_view_2021-05-19_2021-05-23 > OSP-2373_email_open_2021-05-19_2021-05-23 > OSP-2373_email_clk_2021-05-19_2021-05-23,1745.9476547451,142.0,124.0,213,213,False
117,FB_Impression > _AlwaysOn_wow_web_view_2021-05-19_2021-05-23 > OSP-2373_email_open_2021-05-19_2021-05-23,3987.899279418,90.0,88.0,157,157,False
118,OSP-2373_rw_app_imp_2021-05-12_2021-05-18 > OSP-2373_rw_app_clk_2021-05-19_2021-05-23,144214.18227267,4100.0,3228.0,3702,3702,False
119,OSP-2373_rw_app_imp_2021-05-19_2021-05-23 > OSP-2373_email_open_2021-05-19_2021-05-23,83234.927935871,2248.0,1908.0,6590,6590,False
120,_AlwaysOn_video_imp_2021-05-12_2021-05-18,-154.32022344337,0.0,4.0,140,140,False
121,OSP-2373_rw_app_imp_2021-05-19_2021-05-23 > OSP-2373_email_open_2021-05-19_2021-05-23 > OSP-2373_email_open_2021-05-12_2021-05-18,590.50610106628,74.0,60.0,140,140,False
122,OSP-2373_rw_app_imp_2021-05-19_2021-05-23 > OSP-2373_rw_app_clk_2021-05-19_2021-05-23 > OSP-2373_email_open_2021-05-19_2021-05-23,13166.243649224,372.0,336.0,528,528,False
123,OSP-2373_email_open_2021-05-12_2021-05-18 > CVM-1661_email_open_2021-05-12_2021-05-18,115.294545462,10.0,8.0,127,127,False
124,_AlwaysOn_wow_web_view_2021-05-19_2021-05-23 > _AlwaysOn_wow_web_view_2021-05-12_2021-05-18 > _AlwaysOn_wow_web_clk_2021-05-19_2021-05-23,13341.804685901,94.0,36.0,321,321,False
125,OSP-2373_rw_app_imp_2021-05-19_2021-05-23 > OSP-2373_rw_app_imp_2021-05-12_2021-05-18 > OSP-2373_rw_app_clk_2021-05-19_2021-05-23 > OSP-2373_rw_app_clk_2021-05-12_2021-05-18 > OSP-2373_email_open_2021-05-19_2021-05-23,1811.0095066059,150.0,140.0,104,104,False
126,OSP-2373_rw_app_imp_2021-05-12_2021-05-18 > OSP-2373_email_open_2021-05-19_2021-05-23 > CVM-1661_rw_app_imp_2021-05-12_2021-05-18,4890.7866862602,90.0,72.0,190,190,False
127,OSP-2373_rw_app_imp_2021-05-19_2021-05-23 > OSP-2373_rw_app_imp_2021-05-12_2021-05-18 > OSP-2373_rw_app_clk_2021-05-12_2021-05-18,38287.954725298,1658.0,1400.0,2024,2024,False
128,_AlwaysOn_wow_web_clk_2021-05-19_2021-05-23 > OSP-2373_email_open_2021-05-19_2021-05-23 > OSP-2373_email_clk_2021-05-19_2021-05-23,20907.064045488,234.0,134.0,201,201,False
129,_AlwaysOn_sem_shopping_clk_2021-05-19_2021-05-23 > OSP-2373_rw_app_imp_2021-05-19_2021-05-23,-1955.1676166942,60.0,52.0,186,186,False
130,FB_Impression > _AlwaysOn_wow_web_view_2021-05-19_2021-05-23 > _AlwaysOn_wow_web_clk_2021-05-19_2021-05-23,59758.226516989,620.0,380.0,912,912,False
132,_AlwaysOn_wow_web_view_2021-05-19_2021-05-23 > OSP-2373_email_open_2021-05-19_2021-05-23,5837.3439515898,168.0,170.0,513,513,False
133,_AlwaysOn_wow_web_clk_2021-05-12_2021-05-18 > OSP-2373_email_open_2021-05-19_2021-05-23 > OSP-2373_email_clk_2021-05-19_2021-05-23,5078.0279360323,58.0,34.0,131,131,False
134,OSP-2373_rw_app_imp_2021-05-19_2021-05-23 > OSP-2373_email_open_2021-05-12_2021-05-18,-3748.2573966214,94.0,96.0,267,267,False
135,FB_Impression > OSP-2373_email_open_2021-05-19_2021-05-23 > OSP-2373_email_clk_2021-05-19_2021-05-23,93645.079159983,2298.0,1980.0,3677,3677,False
136,FB_Impression > _AlwaysOn_wow_web_view_2021-05-12_2021-05-18,28525.388864336,306.0,202.0,2905,2905,False
137,OSP-2373_rw_app_imp_2021-05-12_2021-05-18 > OSP-2373_rw_app_imp_2021-05-12_2021-05-18 > OSP-2373_rw_app_clk_2021-05-12_2021-05-18,3792.8567910404,156.0,112.0,141,141,False
138,_AlwaysOn_sem_shopping_clk_2021-05-12_2021-05-18 > OSP-2373_email_open_2021-05-19_2021-05-23,737.82346978728,22.0,26.0,319,319,False
139,CVM-1661_email_open_2021-05-12_2021-05-18,1871.6742055826,26.0,24.0,1103,1103,False
140,OSP-2373_rw_app_imp_2021-05-19_2021-05-23 > OSP-2373_rw_app_imp_2021-05-12_2021-05-18 > OSP-2373_email_open_2021-05-12_2021-05-18,-1473.7220607176,72.0,54.0,102,102,False
141,CVM-1661_email_clk_2021-05-19_2021-05-23,2042.8569846643,34.0,40.0,1658,1658,False
142,OSP-2373_rw_app_imp_2021-05-19_2021-05-23 > OSP-2373_rw_app_imp_2021-05-12_2021-05-18 > OSP-2373_rw_app_clk_2021-05-19_2021-05-23 > OSP-2373_email_open_2021-05-19_2021-05-23,3889.8164638069,438.0,350.0,354,354,False
143,OSP-2373_rw_app_imp_2021-05-12_2021-05-18,664468.90052199,30410.0,25930.0,76422,76422,False
144,FB_Impression > OSP-2373_rw_app_imp_2021-05-19_2021-05-23 > OSP-2373_rw_app_clk_2021-05-19_2021-05-23,43693.644523491,540.0,374.0,588,588,False
145,_AlwaysOn_sem_shopping_clk_2021-05-19_2021-05-23 > _AlwaysOn_sem_shopping_clk_2021-05-12_2021-05-18,824.62299140442,18.0,12.0,229,229,False
146,_AlwaysOn_wow_web_view_2021-05-12_2021-05-18 > OSP-2373_rw_app_imp_2021-05-19_2021-05-23,6016.6747827933,122.0,52.0,532,532,False
147,FB_Impression > FB_Click > FB_Impression > OSP-2373_rw_app_imp_2021-05-19_2021-05-23,-5232.6391607281,102.0,138.0,179,179,False
148,FB_Impression > FB_Click,6368.997823494,210.0,196.0,926,926,False
149,_AlwaysOn_wow_web_view_2021-05-12_2021-05-18,79962.389644515,992.0,620.0,30024,30024,False
150,_AlwaysOn_wow_web_view_2021-05-12_2021-05-18 > _AlwaysOn_wow_web_view_2021-05-12_2021-05-18,2724.6324391248,24.0,8.0,153,153,False
151,OSP-2373_email_open_2021-05-12_2021-05-18,35481.258985841,2514.0,2306.0,15176,15176,False
152,OSP-2373_email_clk_2021-05-19_2021-05-23 > CVM-1661_rw_app_imp_2021-05-19_2021-05-23,9204.5937461495,236.0,222.0,345,345,False
153,_AlwaysOn_wow_web_clk_2021-05-12_2021-05-18,86123.076954226,742.0,278.0,3828,3828,False
154,OSP-2373_rw_app_imp_2021-05-12_2021-05-18 > OSP-2373_email_open_2021-05-19_2021-05-23 > OSP-2373_email_clk_2021-05-19_2021-05-23,37725.080850732,1564.0,1294.0,1837,1837,False
155,OSP-2373_rw_app_imp_2021-05-12_2021-05-18 > OSP-2373_email_open_2021-05-12_2021-05-18,2577.269993881,142.0,106.0,253,253,False
156,FB_Impression > OSP-2373_email_open_2021-05-12_2021-05-18,7937.1051888837,70.0,58.0,252,252,False
157,OSP-2373_rw_app_imp_2021-05-12_2021-05-18 > OSP-2373_rw_app_clk_2021-05-12_2021-05-18 > OSP-2373_email_open_2021-05-19_2021-05-23 > OSP-2373_email_clk_2021-05-19_2021-05-23,-3606.4680367186,174.0,164.0,170,170,False
158,_AlwaysOn_wow_web_view_2021-05-19_2021-05-23 > _AlwaysOn_wow_web_clk_2021-05-19_2021-05-23,170371.82257808,1668.0,816.0,3681,3681,False
159,_AlwaysOn_wow_web_clk_2021-05-19_2021-05-23,242049.8421906,2240.0,1350.0,3140,3140,False
160,_AlwaysOn_wow_web_view_2021-05-19_2021-05-23,96549.170825029,1131.0,984.0,14816,14816,False
161,_AlwaysOn_sem_shopping_clk_2021-05-19_2021-05-23,5193.8721799009,192.0,218.0,4405,4405,False
162,_AlwaysOn_sem_brand_clk_2021-05-19_2021-05-23,742.20775075435,42.0,46.0,351,351,False
163,OSP-2373_rw_app_imp_2021-05-19_2021-05-23 > OSP-2373_rw_app_imp_2021-05-12_2021-05-18 > CVM-1661_rw_app_imp_2021-05-12_2021-05-18,362.3287908943,56.0,60.0,181,181,False
164,OSP-2373_rw_web_oap_clk_2021-05-19_2021-05-23,7984.4440090346,172.0,110.0,558,558,False
165,FB_Impression > FB_Click > OSP-2373_rw_app_imp_2021-05-19_2021-05-23,6955.4804522385,92.0,56.0,120,120,False
166,_AlwaysOn_wow_web_clk_2021-05-12_2021-05-18 > OSP-2373_rw_app_imp_2021-05-19_2021-05-23,5728.600130004,74.0,22.0,163,163,False
167,OSP-2373_rw_web_oap_clk_2021-05-12_2021-05-18,4928.1808495736,312.0,242.0,1190,1190,False
168,OSP-2373_rw_app_imp_2021-05-12_2021-05-18 > OSP-2373_rw_app_clk_2021-05-19_2021-05-23 > OSP-2373_rw_app_clk_2021-05-12_2021-05-18,33052.207211775,1377.0,1106.0,975,975,False
169,OSP-2373_rw_app_imp_2021-05-12_2021-05-18 > OSP-2373_rw_app_clk_2021-05-19_2021-05-23 > OSP-2373_email_open_2021-05-19_2021-05-23,10575.657605256,642.0,542.0,522,522,False
170,_AlwaysOn_wow_web_view_2021-05-12_2021-05-18 > OSP-2373_rw_app_imp_2021-05-12_2021-05-18,-886.75342183651,54.0,48.0,268,268,False
171,_AlwaysOn_wow_web_clk_2021-05-12_2021-05-18 > OSP-2373_rw_app_imp_2021-05-19_2021-05-23 > OSP-2373_rw_app_imp_2021-05-12_2021-05-18,6006.4316008213,98.0,26.0,121,121,False
172,OSP-2373_email_clk_2021-05-12_2021-05-18,5620.6164035984,112.0,58.0,414,414,False
173,OSP-2373_rw_web_oap_clk_2021-05-19_2021-05-23 > OSP-2373_email_open_2021-05-19_2021-05-23 > OSP-2373_email_clk_2021-05-19_2021-05-23,4703.0240206947,92.0,50.0,185,185,False
