,channel_name,total_conversions,total_conversion_value,normalised_conversion_value
0,_AlwaysOn_wow_web_view_2021-05-12_2021-05-16,1289.2870153525892,75776.18491664335,0.022380069949059295
1,OSP-2373_rw_app_imp_2021-05-12_2021-05-16,17241.283632578714,615319.1168506063,0.1817310397885358
2,OSP-2373_rw_app_imp_2021-05-05_2021-05-11,33966.852459016394,1221473.1558838335,0.3607552254002989
3,OSP-2373_email_open_2021-05-05_2021-05-11,2367.5997918293,82548.84663531434,0.02438033748920939
4,OSP-2373_rw_app_clk_2021-05-05_2021-05-11,5274.355971896955,187073.77345935017,0.055251186639447246
5,OSP-2373_rw_app_clk_2021-05-12_2021-05-16,4723.47879260994,187758.88764700352,0.055453531260777046
6,_AlwaysOn_wow_web_view_2021-05-05_2021-05-11,1617.4691647150662,125959.97599857516,0.037201570344705795
7,_AlwaysOn_wow_web_clk_2021-05-05_2021-05-11,914.2217017954723,87143.66300593849,0.025737390656913342
8,_AlwaysOn_sem_shopping_clk_2021-05-12_2021-05-16,117.207910486599,2305.5480926574273,0.0006809306596967578
9,FB_Impression,7653.676554774916,261470.2737026944,0.07722377448142968
10,_AlwaysOn_wow_web_clk_2021-05-12_2021-05-16,1125.1959406713504,100089.51299252064,0.0295608746257678
11,OSP-2373_email_open_2021-05-12_2021-05-16,9036.729898516784,261134.9907399473,0.07712475054445975
12,OSP-2373_email_clk_2021-05-05_2021-05-11,269.57819411917774,16555.091748110888,0.004889453219944821
13,CVM-1661_email_open_2021-05-12_2021-05-16,0.0,0.0,0.0
14,_AlwaysOn_sem_shopping_clk_2021-05-05_2021-05-11,246.13661202185793,16036.679330925019,0.004736343028770068
15,_AlwaysOn_sem_generic_clk_2021-05-12_2021-05-16,0.0,0.0,0.0
16,OSP-2373_email_clk_2021-05-12_2021-05-16,3516.2373145979705,116198.45923437919,0.03431856128015684
17,FB_Click,246.13661202185793,9141.9738310855,0.0027000305443884323
18,CVM-1661_rw_app_imp_2021-05-05_2021-05-11,210.97423887587823,6710.300436080319,0.0019818494861397543
19,_AlwaysOn_sem_brand_clk_2021-05-05_2021-05-11,0.0,0.0,0.0
20,_AlwaysOn_sem_generic_clk_2021-05-05_2021-05-11,0.0,0.0,0.0
21,CVM-1661_rw_app_imp_2021-05-12_2021-05-16,93.76632838927921,2872.5012663297834,0.0008483770902420045
22,CVM-1661_email_clk_2021-05-12_2021-05-16,0.0,0.0,0.0
23,CVM-1661_email_open_2021-05-05_2021-05-11,11.720791048659901,1519.1314402591465,0.0004486669252643725
24,_AlwaysOn_sem_other_clk_2021-05-12_2021-05-16,0.0,0.0,0.0
25,OSP-2373_rw_web_oap_clk_2021-05-05_2021-05-11,35.1623731459797,837.2436759214055,0.0002472752099111432
26,_AlwaysOn_sem_brand_clk_2021-05-12_2021-05-16,0.0,0.0,0.0
27,_AlwaysOn_video_imp_2021-05-12_2021-05-16,0.0,0.0,0.0
28,_AlwaysOn_sem_other_clk_2021-05-05_2021-05-11,11.720791048659901,3595.2313900051563,0.0010618313666738407
29,_AlwaysOn_video_imp_2021-05-05_2021-05-11,11.720791048659901,8.254723306081809,2.437986092905881e-06
30,OSP-2373_rw_web_oap_clk_2021-05-12_2021-05-16,105.48711943793911,4349.133189184465,0.0012844920221147926
31,_AlwaysOn_display_imp_2021-05-05_2021-05-11,0.0,0.0,0.0
