,channel_from,channel_to,transition_probability
0,(start),_AlwaysOn_sem_shopping_clk_2021-05-05_2021-05-11,0.003924133420536298
1,(start),_AlwaysOn_wow_web_clk_2021-05-05_2021-05-11,0.007714792915204015
2,(start),OSP-2373_rw_app_imp_2021-05-05_2021-05-11,0.43625952670145884
3,(start),_AlwaysOn_display_imp_2021-05-05_2021-05-11,4.004217776057447e-05
4,(start),CVM-1661_email_open_2021-05-12_2021-05-16,0.00026027415544373407
5,(start),_AlwaysOn_wow_web_view_2021-05-12_2021-05-16,0.021549365331482495
6,(start),_AlwaysOn_wow_web_view_2021-05-05_2021-05-11,0.02309098917526461
7,(start),OSP-2373_rw_app_imp_2021-05-12_2021-05-16,0.2635442666275143
8,(start),OSP-2373_rw_app_clk_2021-05-05_2021-05-11,0.019947678221059514
9,(start),CVM-1661_rw_app_imp_2021-05-12_2021-05-16,0.0014748868808478264
10,(start),OSP-2373_rw_app_clk_2021-05-12_2021-05-16,0.0233178948492412
11,(start),OSP-2373_email_open_2021-05-05_2021-05-11,0.025166508722521054
12,(start),_AlwaysOn_sem_generic_clk_2021-05-05_2021-05-11,4.004217776057447e-05
13,(start),OSP-2373_email_open_2021-05-12_2021-05-16,0.12373032928017512
14,(start),_AlwaysOn_wow_web_clk_2021-05-12_2021-05-16,0.009016163692422686
15,(start),_AlwaysOn_sem_brand_clk_2021-05-12_2021-05-16,0.00014014762216201066
16,(start),_AlwaysOn_video_imp_2021-05-12_2021-05-16,6.673696293429078e-05
17,(start),_AlwaysOn_sem_shopping_clk_2021-05-12_2021-05-16,0.00304320550980366
18,(start),OSP-2373_rw_web_oap_clk_2021-05-12_2021-05-16,0.0011545494587632307
19,(start),OSP-2373_email_clk_2021-05-05_2021-05-11,0.001541623843782117
20,(start),OSP-2373_email_clk_2021-05-12_2021-05-16,0.031526541290158965
21,(start),CVM-1661_rw_app_imp_2021-05-05_2021-05-11,0.001868634962160142
22,(start),CVM-1661_email_open_2021-05-05_2021-05-11,0.00016684240733572697
23,(start),_AlwaysOn_video_imp_2021-05-05_2021-05-11,2.6694785173716313e-05
24,(start),_AlwaysOn_sem_other_clk_2021-05-05_2021-05-11,4.004217776057447e-05
25,(start),_AlwaysOn_sem_generic_clk_2021-05-12_2021-05-16,3.336848146714539e-05
26,(start),_AlwaysOn_sem_other_clk_2021-05-12_2021-05-16,6.006326664086171e-05
27,(start),_AlwaysOn_sem_brand_clk_2021-05-05_2021-05-11,0.0005605904886480426
28,(start),CVM-1661_email_clk_2021-05-12_2021-05-16,2.6694785173716313e-05
29,(start),OSP-2373_rw_web_oap_clk_2021-05-05_2021-05-11,0.0006673696293429079
30,_AlwaysOn_sem_shopping_clk_2021-05-05_2021-05-11,OSP-2373_rw_app_imp_2021-05-12_2021-05-16,0.14603174603174604
31,_AlwaysOn_sem_shopping_clk_2021-05-05_2021-05-11,(conversion),0.44285714285714284
32,_AlwaysOn_sem_shopping_clk_2021-05-05_2021-05-11,(null),0.2841269841269841
33,_AlwaysOn_sem_shopping_clk_2021-05-05_2021-05-11,OSP-2373_email_open_2021-05-12_2021-05-16,0.02857142857142857
34,_AlwaysOn_sem_shopping_clk_2021-05-05_2021-05-11,OSP-2373_rw_app_imp_2021-05-05_2021-05-11,0.09841269841269841
35,OSP-2373_rw_app_imp_2021-05-12_2021-05-16,OSP-2373_rw_app_imp_2021-05-05_2021-05-11,0.45410271546635184
36,OSP-2373_rw_app_imp_2021-05-12_2021-05-16,(conversion),0.273120818575364
37,OSP-2373_rw_app_imp_2021-05-12_2021-05-16,(null),0.21728650137741046
38,OSP-2373_rw_app_imp_2021-05-12_2021-05-16,OSP-2373_email_open_2021-05-12_2021-05-16,0.013331365604092878
39,OSP-2373_rw_app_imp_2021-05-12_2021-05-16,OSP-2373_rw_app_imp_2021-05-12_2021-05-16,0.001721763085399449
40,OSP-2373_rw_app_imp_2021-05-12_2021-05-16,OSP-2373_email_open_2021-05-05_2021-05-11,0.0014020070838252656
41,OSP-2373_rw_app_imp_2021-05-12_2021-05-16,OSP-2373_rw_app_clk_2021-05-12_2021-05-16,0.037436048799685165
42,OSP-2373_rw_app_imp_2021-05-12_2021-05-16,CVM-1661_rw_app_imp_2021-05-12_2021-05-16,0.001598780007870917
43,OSP-2373_rw_app_imp_2021-05-05_2021-05-11,(conversion),0.4146554699183251
44,OSP-2373_rw_app_imp_2021-05-05_2021-05-11,(null),0.3383757045898999
45,OSP-2373_rw_app_imp_2021-05-05_2021-05-11,OSP-2373_email_open_2021-05-12_2021-05-16,0.029621534568043253
46,OSP-2373_rw_app_imp_2021-05-05_2021-05-11,OSP-2373_rw_app_clk_2021-05-12_2021-05-16,0.08222707925917405
47,OSP-2373_rw_app_imp_2021-05-05_2021-05-11,OSP-2373_rw_app_clk_2021-05-05_2021-05-11,0.09562866674335672
48,OSP-2373_rw_app_imp_2021-05-05_2021-05-11,CVM-1661_rw_app_imp_2021-05-05_2021-05-11,0.004279305188082365
49,OSP-2373_rw_app_imp_2021-05-05_2021-05-11,OSP-2373_email_open_2021-05-05_2021-05-11,0.004762452548027148
50,OSP-2373_rw_app_imp_2021-05-05_2021-05-11,OSP-2373_rw_app_imp_2021-05-05_2021-05-11,0.029011848613827218
51,OSP-2373_rw_app_imp_2021-05-05_2021-05-11,CVM-1661_rw_app_imp_2021-05-12_2021-05-16,0.0014379385712642355
52,_AlwaysOn_wow_web_clk_2021-05-05_2021-05-11,OSP-2373_rw_app_imp_2021-05-12_2021-05-16,0.08964646464646464
53,_AlwaysOn_wow_web_clk_2021-05-05_2021-05-11,(conversion),0.5488215488215489
54,_AlwaysOn_wow_web_clk_2021-05-05_2021-05-11,(null),0.25126262626262624
55,_AlwaysOn_wow_web_clk_2021-05-05_2021-05-11,OSP-2373_email_open_2021-05-12_2021-05-16,0.011784511784511785
56,_AlwaysOn_wow_web_clk_2021-05-05_2021-05-11,OSP-2373_rw_app_imp_2021-05-05_2021-05-11,0.09848484848484848
57,OSP-2373_email_open_2021-05-12_2021-05-16,OSP-2373_email_clk_2021-05-12_2021-05-16,0.18293859649122807
58,OSP-2373_email_open_2021-05-12_2021-05-16,OSP-2373_email_open_2021-05-05_2021-05-11,0.057236842105263155
59,OSP-2373_email_open_2021-05-12_2021-05-16,OSP-2373_email_open_2021-05-12_2021-05-16,0.003947368421052632
60,OSP-2373_email_open_2021-05-12_2021-05-16,(conversion),0.40614035087719297
61,OSP-2373_email_open_2021-05-12_2021-05-16,(null),0.3492982456140351
62,OSP-2373_email_open_2021-05-12_2021-05-16,CVM-1661_email_open_2021-05-12_2021-05-16,0.0004385964912280702
63,OSP-2373_email_clk_2021-05-12_2021-05-16,(conversion),0.5588805166846071
64,OSP-2373_email_clk_2021-05-12_2021-05-16,(null),0.4411194833153929
65,_AlwaysOn_display_imp_2021-05-05_2021-05-11,(conversion),0.3333333333333333
66,_AlwaysOn_display_imp_2021-05-05_2021-05-11,(null),0.6666666666666666
67,CVM-1661_email_open_2021-05-12_2021-05-16,(conversion),0.5714285714285714
68,CVM-1661_email_open_2021-05-12_2021-05-16,(null),0.42857142857142855
69,OSP-2373_rw_app_clk_2021-05-12_2021-05-16,(conversion),0.47476159158171655
70,OSP-2373_rw_app_clk_2021-05-12_2021-05-16,(null),0.3287569878329497
71,OSP-2373_rw_app_clk_2021-05-12_2021-05-16,OSP-2373_email_open_2021-05-12_2021-05-16,0.033952647155540944
72,OSP-2373_rw_app_clk_2021-05-12_2021-05-16,OSP-2373_rw_app_clk_2021-05-05_2021-05-11,0.16252877342979283
73,_AlwaysOn_wow_web_view_2021-05-12_2021-05-16,_AlwaysOn_wow_web_view_2021-05-05_2021-05-11,0.04955094456488077
74,_AlwaysOn_wow_web_view_2021-05-12_2021-05-16,_AlwaysOn_wow_web_clk_2021-05-12_2021-05-16,0.4140600805202849
75,_AlwaysOn_wow_web_view_2021-05-12_2021-05-16,(conversion),0.20284917931248064
76,_AlwaysOn_wow_web_view_2021-05-12_2021-05-16,(null),0.20222979250541964
77,_AlwaysOn_wow_web_view_2021-05-12_2021-05-16,OSP-2373_rw_app_imp_2021-05-12_2021-05-16,0.07990089811087024
78,_AlwaysOn_wow_web_view_2021-05-12_2021-05-16,OSP-2373_rw_app_imp_2021-05-05_2021-05-11,0.019510684422421803
79,_AlwaysOn_wow_web_view_2021-05-12_2021-05-16,OSP-2373_email_open_2021-05-12_2021-05-16,0.024156085475379376
80,_AlwaysOn_wow_web_view_2021-05-12_2021-05-16,_AlwaysOn_sem_shopping_clk_2021-05-12_2021-05-16,0.00774233508826262
81,_AlwaysOn_wow_web_view_2021-05-05_2021-05-11,(conversion),0.2959912136188907
82,_AlwaysOn_wow_web_view_2021-05-05_2021-05-11,(null),0.1916529379461834
83,_AlwaysOn_wow_web_view_2021-05-05_2021-05-11,_AlwaysOn_sem_shopping_clk_2021-05-05_2021-05-11,0.010159253157605712
84,_AlwaysOn_wow_web_view_2021-05-05_2021-05-11,OSP-2373_email_open_2021-05-05_2021-05-11,0.006864360241625481
85,_AlwaysOn_wow_web_view_2021-05-05_2021-05-11,_AlwaysOn_wow_web_clk_2021-05-12_2021-05-16,0.046677649643053265
86,_AlwaysOn_wow_web_view_2021-05-05_2021-05-11,OSP-2373_rw_app_imp_2021-05-05_2021-05-11,0.04914881933003844
87,_AlwaysOn_wow_web_view_2021-05-05_2021-05-11,OSP-2373_email_open_2021-05-12_2021-05-16,0.01784733662822625
88,_AlwaysOn_wow_web_view_2021-05-05_2021-05-11,_AlwaysOn_wow_web_view_2021-05-05_2021-05-11,0.0060406370126304225
89,_AlwaysOn_wow_web_view_2021-05-05_2021-05-11,_AlwaysOn_wow_web_clk_2021-05-05_2021-05-11,0.31795716639209226
90,_AlwaysOn_wow_web_view_2021-05-05_2021-05-11,OSP-2373_rw_app_imp_2021-05-12_2021-05-16,0.057660626029654036
91,OSP-2373_rw_app_clk_2021-05-05_2021-05-11,(conversion),0.544845244370811
92,OSP-2373_rw_app_clk_2021-05-05_2021-05-11,(null),0.42262218540552754
93,OSP-2373_rw_app_clk_2021-05-05_2021-05-11,OSP-2373_email_open_2021-05-12_2021-05-16,0.03253257022366142
94,_AlwaysOn_wow_web_clk_2021-05-12_2021-05-16,(conversion),0.5447865640307907
95,_AlwaysOn_wow_web_clk_2021-05-12_2021-05-16,(null),0.33869839048285516
96,_AlwaysOn_wow_web_clk_2021-05-12_2021-05-16,OSP-2373_rw_app_imp_2021-05-12_2021-05-16,0.09482155353393981
97,_AlwaysOn_wow_web_clk_2021-05-12_2021-05-16,_AlwaysOn_wow_web_clk_2021-05-05_2021-05-11,0.021693491952414275
98,CVM-1661_rw_app_imp_2021-05-05_2021-05-11,(conversion),0.5521472392638037
99,CVM-1661_rw_app_imp_2021-05-05_2021-05-11,(null),0.44785276073619634
100,CVM-1661_rw_app_imp_2021-05-12_2021-05-16,(conversion),0.537712895377129
101,CVM-1661_rw_app_imp_2021-05-12_2021-05-16,(null),0.46228710462287104
102,OSP-2373_email_open_2021-05-05_2021-05-11,OSP-2373_email_clk_2021-05-05_2021-05-11,0.055455850681981333
103,OSP-2373_email_open_2021-05-05_2021-05-11,(conversion),0.4766690595836324
104,OSP-2373_email_open_2021-05-05_2021-05-11,(null),0.39519023689877963
105,OSP-2373_email_open_2021-05-05_2021-05-11,CVM-1661_email_open_2021-05-05_2021-05-11,0.0017946877243359654
106,OSP-2373_email_open_2021-05-05_2021-05-11,OSP-2373_email_clk_2021-05-12_2021-05-16,0.07089016511127064
107,OSP-2373_email_clk_2021-05-05_2021-05-11,(conversion),0.6277777777777778
108,OSP-2373_email_clk_2021-05-05_2021-05-11,(null),0.37222222222222223
109,_AlwaysOn_sem_generic_clk_2021-05-05_2021-05-11,(conversion),0.3333333333333333
110,_AlwaysOn_sem_generic_clk_2021-05-05_2021-05-11,(null),0.6666666666666666
111,CVM-1661_email_open_2021-05-05_2021-05-11,(conversion),0.42857142857142855
112,CVM-1661_email_open_2021-05-05_2021-05-11,(null),0.5714285714285714
113,_AlwaysOn_sem_brand_clk_2021-05-12_2021-05-16,(conversion),0.42857142857142855
114,_AlwaysOn_sem_brand_clk_2021-05-12_2021-05-16,(null),0.5714285714285714
115,_AlwaysOn_video_imp_2021-05-12_2021-05-16,(conversion),0.1
116,_AlwaysOn_video_imp_2021-05-12_2021-05-16,(null),0.9
117,_AlwaysOn_sem_shopping_clk_2021-05-12_2021-05-16,OSP-2373_email_open_2021-05-12_2021-05-16,0.0395010395010395
118,_AlwaysOn_sem_shopping_clk_2021-05-12_2021-05-16,OSP-2373_rw_app_imp_2021-05-12_2021-05-16,0.10810810810810811
119,_AlwaysOn_sem_shopping_clk_2021-05-12_2021-05-16,OSP-2373_rw_app_imp_2021-05-05_2021-05-11,0.079002079002079
120,_AlwaysOn_sem_shopping_clk_2021-05-12_2021-05-16,(conversion),0.38253638253638256
121,_AlwaysOn_sem_shopping_clk_2021-05-12_2021-05-16,(null),0.3804573804573805
122,_AlwaysOn_sem_shopping_clk_2021-05-12_2021-05-16,_AlwaysOn_sem_shopping_clk_2021-05-05_2021-05-11,0.010395010395010396
123,OSP-2373_rw_web_oap_clk_2021-05-12_2021-05-16,(conversion),0.6242774566473989
124,OSP-2373_rw_web_oap_clk_2021-05-12_2021-05-16,(null),0.37572254335260113
125,_AlwaysOn_video_imp_2021-05-05_2021-05-11,(conversion),0.5
126,_AlwaysOn_video_imp_2021-05-05_2021-05-11,(null),0.5
127,_AlwaysOn_sem_other_clk_2021-05-05_2021-05-11,(conversion),1.0
128,_AlwaysOn_sem_generic_clk_2021-05-12_2021-05-16,(conversion),1.0
129,_AlwaysOn_sem_other_clk_2021-05-12_2021-05-16,(conversion),0.6666666666666666
130,_AlwaysOn_sem_other_clk_2021-05-12_2021-05-16,(null),0.3333333333333333
131,_AlwaysOn_sem_brand_clk_2021-05-05_2021-05-11,(conversion),0.5595238095238095
132,_AlwaysOn_sem_brand_clk_2021-05-05_2021-05-11,(null),0.44047619047619047
133,CVM-1661_email_clk_2021-05-12_2021-05-16,(conversion),0.25
134,CVM-1661_email_clk_2021-05-12_2021-05-16,(null),0.75
135,OSP-2373_rw_web_oap_clk_2021-05-05_2021-05-11,(conversion),0.66
136,OSP-2373_rw_web_oap_clk_2021-05-05_2021-05-11,(null),0.34
