,channel_from,channel_to,transition_probability
0,(start),_AlwaysOn_sem_shopping_clk_2021-05-05_2021-05-11,0.2286303570591519
1,(start),OSP-2373_email_open_2021-05-12_2021-05-16,0.008267033711599842
2,(start),_AlwaysOn_display_imp_2021-05-05_2021-05-11,0.0015255660148210017
3,(start),OSP-2373_rw_app_imp_2021-05-12_2021-05-16,0.025491441063293943
4,(start),CVM-1661_email_open_2021-05-12_2021-05-16,0.001325282208405954
5,(start),OSP-2373_rw_app_clk_2021-05-12_2021-05-16,0.12336630203650278
6,(start),_AlwaysOn_wow_web_view_2021-05-05_2021-05-11,0.18966663399625852
7,(start),CVM-1661_rw_app_imp_2021-05-05_2021-05-11,0.011019870710410922
8,(start),OSP-2373_email_open_2021-05-05_2021-05-11,0.01547298938495826
9,(start),OSP-2373_rw_app_imp_2021-05-05_2021-05-11,0.20604729254645945
10,(start),CVM-1661_rw_app_imp_2021-05-12_2021-05-16,0.006515615744863998
11,(start),OSP-2373_email_clk_2021-05-05_2021-05-11,1.7045430333195548e-05
12,(start),_AlwaysOn_sem_generic_clk_2021-05-05_2021-05-11,0.0002045451639983466
13,(start),_AlwaysOn_wow_web_clk_2021-05-05_2021-05-11,0.15635560176761112
14,(start),_AlwaysOn_video_imp_2021-05-12_2021-05-16,4.2613575832988876e-05
15,(start),_AlwaysOn_wow_web_view_2021-05-12_2021-05-16,0.01351915693301572
16,(start),_AlwaysOn_sem_shopping_clk_2021-05-12_2021-05-16,0.002041190282400167
17,(start),OSP-2373_email_clk_2021-05-12_2021-05-16,0.003285506696723442
18,(start),_AlwaysOn_wow_web_clk_2021-05-12_2021-05-16,0.0008139192984100875
19,(start),OSP-2373_rw_web_oap_clk_2021-05-12_2021-05-16,0.0011718733354071941
20,(start),_AlwaysOn_video_imp_2021-05-05_2021-05-11,3.4090860666391096e-05
21,(start),OSP-2373_rw_app_clk_2021-05-05_2021-05-11,0.0042485735105489905
22,(start),_AlwaysOn_sem_other_clk_2021-05-05_2021-05-11,3.835221824968999e-05
23,(start),_AlwaysOn_sem_generic_clk_2021-05-12_2021-05-16,3.835221824968999e-05
24,(start),_AlwaysOn_sem_other_clk_2021-05-12_2021-05-16,3.835221824968999e-05
25,(start),_AlwaysOn_sem_brand_clk_2021-05-05_2021-05-11,8.522715166597774e-06
26,(start),CVM-1661_email_clk_2021-05-12_2021-05-16,0.00010653393958247219
27,(start),OSP-2373_rw_web_oap_clk_2021-05-05_2021-05-11,0.00015767023058205884
28,(start),,0.00018749973366515105
29,(start),CVM-1661_email_open_2021-05-05_2021-05-11,0.00036221539458040545
30,_AlwaysOn_sem_shopping_clk_2021-05-05_2021-05-11,OSP-2373_rw_app_imp_2021-05-12_2021-05-16,0.060731957800392124
31,_AlwaysOn_sem_shopping_clk_2021-05-05_2021-05-11,_AlwaysOn_wow_web_view_2021-05-05_2021-05-11,0.42787788255064885
32,_AlwaysOn_sem_shopping_clk_2021-05-05_2021-05-11,OSP-2373_rw_app_imp_2021-05-05_2021-05-11,0.06147885351507796
33,_AlwaysOn_sem_shopping_clk_2021-05-05_2021-05-11,(conversion),0.23687486384713535
34,_AlwaysOn_sem_shopping_clk_2021-05-05_2021-05-11,(null),0.206034294961566
35,_AlwaysOn_sem_shopping_clk_2021-05-05_2021-05-11,_AlwaysOn_sem_shopping_clk_2021-05-05_2021-05-11,0.0014626707745930975
36,_AlwaysOn_sem_shopping_clk_2021-05-05_2021-05-11,OSP-2373_rw_app_clk_2021-05-05_2021-05-11,0.004061245448604239
37,_AlwaysOn_sem_shopping_clk_2021-05-05_2021-05-11,OSP-2373_email_open_2021-05-05_2021-05-11,0.0014782311019823856
38,OSP-2373_rw_app_imp_2021-05-12_2021-05-16,OSP-2373_rw_app_imp_2021-05-05_2021-05-11,0.1468584405753217
39,OSP-2373_rw_app_imp_2021-05-12_2021-05-16,(conversion),0.4126394959830041
40,OSP-2373_rw_app_imp_2021-05-12_2021-05-16,(null),0.31325242362823863
41,OSP-2373_rw_app_imp_2021-05-12_2021-05-16,CVM-1661_rw_app_imp_2021-05-12_2021-05-16,0.12724963981343557
42,OSP-2373_rw_app_imp_2021-05-05_2021-05-11,_AlwaysOn_wow_web_clk_2021-05-05_2021-05-11,0.3986847714423487
43,OSP-2373_rw_app_imp_2021-05-05_2021-05-11,(conversion),0.29055229815574485
44,OSP-2373_rw_app_imp_2021-05-05_2021-05-11,(null),0.26244470379403606
45,OSP-2373_rw_app_imp_2021-05-05_2021-05-11,_AlwaysOn_wow_web_clk_2021-05-12_2021-05-16,0.0017471155122892104
46,OSP-2373_rw_app_imp_2021-05-05_2021-05-11,OSP-2373_email_open_2021-05-05_2021-05-11,0.027492609701383015
47,OSP-2373_rw_app_imp_2021-05-05_2021-05-11,OSP-2373_rw_app_clk_2021-05-05_2021-05-11,0.008595808320462917
48,OSP-2373_rw_app_imp_2021-05-05_2021-05-11,OSP-2373_rw_app_imp_2021-05-05_2021-05-11,0.010482693073735264
49,_AlwaysOn_wow_web_clk_2021-05-05_2021-05-11,(conversion),0.5429650191021967
50,_AlwaysOn_wow_web_clk_2021-05-05_2021-05-11,(null),0.4477972779369627
51,_AlwaysOn_wow_web_clk_2021-05-05_2021-05-11,CVM-1661_email_open_2021-05-05_2021-05-11,0.0020743791786055395
52,_AlwaysOn_wow_web_clk_2021-05-05_2021-05-11,OSP-2373_rw_app_clk_2021-05-05_2021-05-11,0.0071633237822349575
53,OSP-2373_email_open_2021-05-12_2021-05-16,OSP-2373_email_clk_2021-05-12_2021-05-16,0.2510428517254456
54,OSP-2373_email_open_2021-05-12_2021-05-16,_AlwaysOn_display_imp_2021-05-05_2021-05-11,0.006825938566552901
55,OSP-2373_email_open_2021-05-12_2021-05-16,OSP-2373_email_open_2021-05-12_2021-05-16,0.011376564277588168
56,OSP-2373_email_open_2021-05-12_2021-05-16,OSP-2373_rw_app_imp_2021-05-05_2021-05-11,0.09632157755024649
57,OSP-2373_email_open_2021-05-12_2021-05-16,CVM-1661_rw_app_imp_2021-05-05_2021-05-11,0.09366704588547592
58,OSP-2373_email_open_2021-05-12_2021-05-16,_AlwaysOn_sem_shopping_clk_2021-05-05_2021-05-11,0.06560485400075844
59,OSP-2373_email_open_2021-05-12_2021-05-16,(conversion),0.2806219188471748
60,OSP-2373_email_open_2021-05-12_2021-05-16,(null),0.1751990898748578
61,OSP-2373_email_open_2021-05-12_2021-05-16,_AlwaysOn_wow_web_view_2021-05-05_2021-05-11,0.019340159271899887
62,OSP-2373_email_clk_2021-05-12_2021-05-16,(conversion),0.545819397993311
63,OSP-2373_email_clk_2021-05-12_2021-05-16,(null),0.2140468227424749
64,OSP-2373_email_clk_2021-05-12_2021-05-16,OSP-2373_rw_app_imp_2021-05-05_2021-05-11,0.08494983277591973
65,OSP-2373_email_clk_2021-05-12_2021-05-16,_AlwaysOn_wow_web_view_2021-05-05_2021-05-11,0.05752508361204013
66,OSP-2373_email_clk_2021-05-12_2021-05-16,_AlwaysOn_sem_shopping_clk_2021-05-05_2021-05-11,0.09765886287625418
67,_AlwaysOn_display_imp_2021-05-05_2021-05-11,(conversion),0.40705882352941175
68,_AlwaysOn_display_imp_2021-05-05_2021-05-11,(null),0.24235294117647058
69,_AlwaysOn_display_imp_2021-05-05_2021-05-11,OSP-2373_rw_app_imp_2021-05-05_2021-05-11,0.16705882352941176
70,_AlwaysOn_display_imp_2021-05-05_2021-05-11,_AlwaysOn_sem_shopping_clk_2021-05-05_2021-05-11,0.15058823529411763
71,_AlwaysOn_display_imp_2021-05-05_2021-05-11,_AlwaysOn_wow_web_view_2021-05-05_2021-05-11,0.03294117647058824
72,CVM-1661_email_open_2021-05-12_2021-05-16,OSP-2373_rw_app_imp_2021-05-05_2021-05-11,0.09803921568627451
73,CVM-1661_email_open_2021-05-12_2021-05-16,(conversion),0.3389355742296919
74,CVM-1661_email_open_2021-05-12_2021-05-16,(null),0.3641456582633053
75,CVM-1661_email_open_2021-05-12_2021-05-16,_AlwaysOn_sem_shopping_clk_2021-05-05_2021-05-11,0.1568627450980392
76,CVM-1661_email_open_2021-05-12_2021-05-16,_AlwaysOn_display_imp_2021-05-05_2021-05-11,0.04201680672268908
77,OSP-2373_rw_app_clk_2021-05-12_2021-05-16,_AlwaysOn_wow_web_view_2021-05-12_2021-05-16,0.045536168050143995
78,OSP-2373_rw_app_clk_2021-05-12_2021-05-16,_AlwaysOn_display_imp_2021-05-05_2021-05-11,0.0011519566322209045
79,OSP-2373_rw_app_clk_2021-05-12_2021-05-16,_AlwaysOn_wow_web_view_2021-05-05_2021-05-11,0.04621378959850923
80,OSP-2373_rw_app_clk_2021-05-12_2021-05-16,_AlwaysOn_sem_shopping_clk_2021-05-05_2021-05-11,0.30598001016432325
81,OSP-2373_rw_app_clk_2021-05-12_2021-05-16,_AlwaysOn_sem_brand_clk_2021-05-12_2021-05-16,0.02852786718617652
82,OSP-2373_rw_app_clk_2021-05-12_2021-05-16,OSP-2373_rw_app_imp_2021-05-05_2021-05-11,0.1407758766728782
83,OSP-2373_rw_app_clk_2021-05-12_2021-05-16,OSP-2373_email_open_2021-05-12_2021-05-16,0.015788582076910047
84,OSP-2373_rw_app_clk_2021-05-12_2021-05-16,(conversion),0.2055226156191767
85,OSP-2373_rw_app_clk_2021-05-12_2021-05-16,(null),0.20677621548365238
86,OSP-2373_rw_app_clk_2021-05-12_2021-05-16,CVM-1661_email_open_2021-05-12_2021-05-16,0.0015585295612400474
87,OSP-2373_rw_app_clk_2021-05-12_2021-05-16,OSP-2373_email_open_2021-05-05_2021-05-11,0.0021683889547687617
88,_AlwaysOn_wow_web_view_2021-05-12_2021-05-16,(conversion),0.17768183327798073
89,_AlwaysOn_wow_web_view_2021-05-12_2021-05-16,(null),0.15543008967120558
90,_AlwaysOn_wow_web_view_2021-05-12_2021-05-16,CVM-1661_rw_app_imp_2021-05-05_2021-05-11,0.45831949518432413
91,_AlwaysOn_wow_web_view_2021-05-12_2021-05-16,OSP-2373_email_open_2021-05-12_2021-05-16,0.04450348721355032
92,_AlwaysOn_wow_web_view_2021-05-12_2021-05-16,_AlwaysOn_sem_shopping_clk_2021-05-05_2021-05-11,0.07749363445145577
93,_AlwaysOn_wow_web_view_2021-05-12_2021-05-16,OSP-2373_rw_app_imp_2021-05-05_2021-05-11,0.08657146020148344
94,_AlwaysOn_wow_web_view_2021-05-05_2021-05-11,OSP-2373_rw_app_clk_2021-05-05_2021-05-11,0.005728496236041002
95,_AlwaysOn_wow_web_view_2021-05-05_2021-05-11,CVM-1661_rw_app_imp_2021-05-12_2021-05-16,0.08410780355975496
96,_AlwaysOn_wow_web_view_2021-05-05_2021-05-11,_AlwaysOn_wow_web_clk_2021-05-12_2021-05-16,0.002951860413395246
97,_AlwaysOn_wow_web_view_2021-05-05_2021-05-11,OSP-2373_rw_app_imp_2021-05-05_2021-05-11,0.10851793693262614
98,_AlwaysOn_wow_web_view_2021-05-05_2021-05-11,(conversion),0.34772646093502535
99,_AlwaysOn_wow_web_view_2021-05-05_2021-05-11,(null),0.2966821897682318
100,_AlwaysOn_wow_web_view_2021-05-05_2021-05-11,OSP-2373_rw_app_imp_2021-05-12_2021-05-16,0.14274738679480525
101,_AlwaysOn_wow_web_view_2021-05-05_2021-05-11,_AlwaysOn_wow_web_view_2021-05-05_2021-05-11,0.00901732701626219
102,_AlwaysOn_wow_web_view_2021-05-05_2021-05-11,OSP-2373_email_open_2021-05-05_2021-05-11,0.002520538343858041
103,OSP-2373_rw_app_clk_2021-05-05_2021-05-11,_AlwaysOn_wow_web_clk_2021-05-12_2021-05-16,0.02663786897048236
104,OSP-2373_rw_app_clk_2021-05-05_2021-05-11,(conversion),0.49676025917926564
105,OSP-2373_rw_app_clk_2021-05-05_2021-05-11,(null),0.476601871850252
106,_AlwaysOn_wow_web_clk_2021-05-12_2021-05-16,(conversion),0.5205254515599343
107,_AlwaysOn_wow_web_clk_2021-05-12_2021-05-16,(null),0.4794745484400657
108,CVM-1661_rw_app_imp_2021-05-05_2021-05-11,OSP-2373_rw_app_imp_2021-05-05_2021-05-11,0.1005506832551499
109,CVM-1661_rw_app_imp_2021-05-05_2021-05-11,OSP-2373_email_clk_2021-05-12_2021-05-16,0.012645319192331226
110,CVM-1661_rw_app_imp_2021-05-05_2021-05-11,_AlwaysOn_sem_shopping_clk_2021-05-05_2021-05-11,0.12767693249031206
111,CVM-1661_rw_app_imp_2021-05-05_2021-05-11,(conversion),0.49112788088925147
112,CVM-1661_rw_app_imp_2021-05-05_2021-05-11,(null),0.2679991841729553
113,CVM-1661_rw_app_imp_2021-05-12_2021-05-16,(conversion),0.4698539688659694
114,CVM-1661_rw_app_imp_2021-05-12_2021-05-16,(null),0.379488168104487
115,CVM-1661_rw_app_imp_2021-05-12_2021-05-16,OSP-2373_rw_app_imp_2021-05-05_2021-05-11,0.1506578630295436
116,OSP-2373_email_open_2021-05-05_2021-05-11,_AlwaysOn_wow_web_clk_2021-05-05_2021-05-11,0.30148048452220727
117,OSP-2373_email_open_2021-05-05_2021-05-11,(conversion),0.3566621803499327
118,OSP-2373_email_open_2021-05-05_2021-05-11,(null),0.3183041722745626
119,OSP-2373_email_open_2021-05-05_2021-05-11,CVM-1661_email_open_2021-05-05_2021-05-11,0.022039030955585466
120,OSP-2373_email_open_2021-05-05_2021-05-11,CVM-1661_email_clk_2021-05-12_2021-05-16,0.0015141318977119785
121,OSP-2373_email_clk_2021-05-05_2021-05-11,(conversion),0.75
122,OSP-2373_email_clk_2021-05-05_2021-05-11,(null),0.25
123,_AlwaysOn_sem_generic_clk_2021-05-05_2021-05-11,(conversion),0.4583333333333333
124,_AlwaysOn_sem_generic_clk_2021-05-05_2021-05-11,(null),0.3333333333333333
125,_AlwaysOn_sem_generic_clk_2021-05-05_2021-05-11,OSP-2373_rw_app_imp_2021-05-05_2021-05-11,0.20833333333333334
126,CVM-1661_email_open_2021-05-05_2021-05-11,(conversion),0.5943661971830986
127,CVM-1661_email_open_2021-05-05_2021-05-11,(null),0.4056338028169014
128,_AlwaysOn_sem_brand_clk_2021-05-12_2021-05-16,OSP-2373_rw_app_clk_2021-05-12_2021-05-16,0.671021377672209
129,_AlwaysOn_sem_brand_clk_2021-05-12_2021-05-16,(conversion),0.12470308788598575
130,_AlwaysOn_sem_brand_clk_2021-05-12_2021-05-16,(null),0.1163895486935867
131,_AlwaysOn_sem_brand_clk_2021-05-12_2021-05-16,_AlwaysOn_sem_shopping_clk_2021-05-05_2021-05-11,0.08788598574821853
132,_AlwaysOn_video_imp_2021-05-12_2021-05-16,(conversion),0.6
133,_AlwaysOn_video_imp_2021-05-12_2021-05-16,(null),0.4
134,_AlwaysOn_sem_shopping_clk_2021-05-12_2021-05-16,OSP-2373_rw_app_imp_2021-05-05_2021-05-11,0.42171189979123175
135,_AlwaysOn_sem_shopping_clk_2021-05-12_2021-05-16,(conversion),0.325678496868476
136,_AlwaysOn_sem_shopping_clk_2021-05-12_2021-05-16,(null),0.25260960334029225
137,OSP-2373_rw_web_oap_clk_2021-05-12_2021-05-16,OSP-2373_rw_app_imp_2021-05-05_2021-05-11,0.48727272727272725
138,OSP-2373_rw_web_oap_clk_2021-05-12_2021-05-16,(conversion),0.31272727272727274
139,OSP-2373_rw_web_oap_clk_2021-05-12_2021-05-16,(null),0.2
140,_AlwaysOn_video_imp_2021-05-05_2021-05-11,(conversion),0.625
141,_AlwaysOn_video_imp_2021-05-05_2021-05-11,(null),0.375
142,_AlwaysOn_sem_other_clk_2021-05-05_2021-05-11,(conversion),0.5555555555555556
143,_AlwaysOn_sem_other_clk_2021-05-05_2021-05-11,(null),0.4444444444444444
144,_AlwaysOn_sem_generic_clk_2021-05-12_2021-05-16,(conversion),0.6666666666666666
145,_AlwaysOn_sem_generic_clk_2021-05-12_2021-05-16,(null),0.3333333333333333
146,_AlwaysOn_sem_other_clk_2021-05-12_2021-05-16,(conversion),0.5555555555555556
147,_AlwaysOn_sem_other_clk_2021-05-12_2021-05-16,(null),0.4444444444444444
148,_AlwaysOn_sem_brand_clk_2021-05-05_2021-05-11,(null),1.0
149,CVM-1661_email_clk_2021-05-12_2021-05-16,(conversion),0.5294117647058824
150,CVM-1661_email_clk_2021-05-12_2021-05-16,(null),0.47058823529411764
151,OSP-2373_rw_web_oap_clk_2021-05-05_2021-05-11,(conversion),0.4594594594594595
152,OSP-2373_rw_web_oap_clk_2021-05-05_2021-05-11,(null),0.5405405405405406
153,,(conversion),0.4772727272727273
154,,(null),0.5227272727272727
