,campaign_code,campaign_start_date,channel,medium,event,channel_event,channel_prob_norm_AL,channel_prob_norm_shanglin,attributed_inc_sales_AL,attributed_inc_sales_shanglin,count_AL,count_shanglin
0,OSP-2373,2021-03-17,CVM-1661_email,CVM-1661_email,CVM-1661_email_open,CVM-1661_email_open,,0.0012111198529964895,,-251.85131375846345,,95
1,OSP-2373,2021-03-17,CVM-1661_rw_app,CVM-1661_rw_app,CVM-1661_rw_app_clk,CVM-1661_rw_app_clk,,0.00213891795929158,,18.952466281589686,,256
2,OSP-2373,2021-03-17,CVM-1661_rw_app,CVM-1661_rw_app,CVM-1661_rw_app_imp,CVM-1661_rw_app_imp,0.002151584940820144,0.01604188469468685,515.5480152830232,1573.9210150270715,3046.0,3046
3,OSP-2373,2021-03-17,OSP-2373_email,OSP-2373_email,OSP-2373_email_clk,OSP-2373_email_clk,0.005585549615794846,0.1906024779697758,36926.261937143616,70441.60605289828,42845.0,42845
4,OSP-2373,2021-03-17,OSP-2373_email,OSP-2373_email,OSP-2373_email_open,DEFAULT,,,689103.1923322075,689103.1923322077,130832.0,130832
5,OSP-2373,2021-03-17,OSP-2373_email,OSP-2373_email,OSP-2373_email_open,OSP-2373_email_open,0.023544223033618795,0.35363848185301383,265476.18141099287,267472.82841950544,84616.0,84616
6,OSP-2373,2021-03-17,OSP-2373_rw_app,OSP-2373_rw_app,OSP-2373_rw_app_clk,OSP-2373_rw_app_clk,0.03202590621292806,0.03110098892355497,11996.463134054042,10027.289645313536,18166.0,18166
7,OSP-2373,2021-03-17,OSP-2373_rw_app,OSP-2373_rw_app,OSP-2373_rw_app_imp,OSP-2373_rw_app_imp,0.2048734017857269,0.22950384929795734,361127.0454450663,330886.1459791366,97242.0,97242
8,OSP-2373,2021-03-17,OSP-2373_rw_web_oap,OSP-2373_rw_web_oap,OSP-2373_rw_web_oap_clk,OSP-2373_rw_web_oap_clk,0.004704994113990796,0.02545352371783079,24043.22756196572,21748.94367857666,6374.0,6374
9,OSP-2373,2021-03-17,AlwaysOn_sem,AlwaysOn_sem_brand,AlwaysOn_sem_brand_clk,_AlwaysOn_sem_brand_clk,0.0001001536127061766,0.0024232037136430766,228.6594138265928,235.9967068113168,153.0,153
10,OSP-2373,2021-03-17,AlwaysOn_sem,AlwaysOn_sem_shopping,AlwaysOn_sem_shopping_clk,_AlwaysOn_sem_shopping_clk,0.0015725671769352247,0.00969699791650441,2666.637552236983,2705.238640696381,812.0,812
11,OSP-2373,2021-03-17,AlwaysOn_wow_web,AlwaysOn_wow_web,AlwaysOn_wow_web_clk,_AlwaysOn_wow_web_clk,0.013393648029317173,0.044415225085870556,15715.65322527611,12451.564893766392,3426.0,3426
12,OSP-2373,2021-03-17,AlwaysOn_wow_web,AlwaysOn_wow_web,AlwaysOn_wow_web_view,_AlwaysOn_wow_web_view,0.020564963505992778,0.09376547518128228,40728.10085488598,41857.520642274525,8803.0,8803
13,OSP-2373,2021-03-24,CVM-1661_rw_app,CVM-1661_rw_app,CVM-1661_rw_app_clk,CVM-1661_rw_app_clk,,0.0011030043784644385,,43.41260806966743,,160
14,OSP-2373,2021-03-24,CVM-1661_rw_app,CVM-1661_rw_app,CVM-1661_rw_app_imp,CVM-1661_rw_app_imp,0.004949562159580582,0.012133048163108826,6737.69289137361,7245.046906218699,1816.0,2066
15,OSP-2373,2021-03-24,OSP-2373_email,OSP-2373_email,OSP-2373_email_clk,OSP-2373_email_clk,0.20985889541783315,0.2023710668304102,648765.7421613309,602937.6400043915,39169.0,47299
16,OSP-2373,2021-03-24,OSP-2373_email,OSP-2373_email,OSP-2373_email_open,DEFAULT,,,4238825.225331377,3701460.5809442615,112279.0,98535
17,OSP-2373,2021-03-24,OSP-2373_email,OSP-2373_email,OSP-2373_email_open,OSP-2373_email_open,0.2298951110123031,0.3583976145393523,1779114.886297239,2222296.3266267176,72951.0,84124
18,OSP-2373,2021-03-24,OSP-2373_rw_app,OSP-2373_rw_app,OSP-2373_rw_app_clk,OSP-2373_rw_app_clk,0.03987188990874177,0.04910277248755779,77182.31788520081,80418.33193294526,10957.0,12320
19,OSP-2373,2021-03-24,OSP-2373_rw_app,OSP-2373_rw_app,OSP-2373_rw_app_imp,OSP-2373_rw_app_imp,0.1592061512166793,0.20721369989749389,2027451.2280575016,2136869.0585481115,65732.0,70540
20,OSP-2373,2021-03-24,OSP-2373_rw_web_oap,OSP-2373_rw_web_oap,OSP-2373_rw_web_oap_clk,OSP-2373_rw_web_oap_clk,0.007325925588559837,0.04572699975910112,62877.93086523361,74123.4899022445,4018.0,4813
21,OSP-2373,2021-03-24,AlwaysOn_sem,AlwaysOn_sem_brand,AlwaysOn_sem_brand_clk,_AlwaysOn_sem_brand_clk,,0.001202407975562127,,1479.0965269358628,,130
22,OSP-2373,2021-03-24,AlwaysOn_sem,AlwaysOn_sem_shopping,AlwaysOn_sem_shopping_clk,_AlwaysOn_sem_shopping_clk,0.0007737825073195321,0.003610065301331323,10925.01649992456,8857.559878415821,648.0,688
23,OSP-2373,2021-03-24,AlwaysOn_wow_web,AlwaysOn_wow_web,AlwaysOn_wow_web_clk,_AlwaysOn_wow_web_clk,0.018239273971176223,0.036331179733824,64053.35091380005,47152.43056530086,2922.0,3234
24,OSP-2373,2021-03-24,AlwaysOn_wow_web,AlwaysOn_wow_web,AlwaysOn_wow_web_view,_AlwaysOn_wow_web_view,0.02139553847153606,0.0828012933468547,202051.6885005149,236083.3673728475,7494.0,7930
