event,channel_prob_norm_AL,channel_prob_norm_shanglin,attributed_inc_sales_AL,attributed_inc_sales_shanglin,attributed_inc_sales_safari
AlwaysOn_display_imp,0.0,0.0015837843755272126,0.0,700.4588019082579,700.458801908258
AlwaysOn_sem_brand_clk,0.0004940235789943866,0.00400171451593026,140.7016816473065,169.25396028875593,169.25396028875548
AlwaysOn_sem_shopping_clk,0.002072379538886255,0.007172178575988378,6282.253980700268,7116.8896197175545,7116.8896197175545
AlwaysOn_wow_web_clk,0.06202418804845358,0.17464032637783697,196904.90724513598,129439.77853870235,129439.77853870217
AlwaysOn_wow_web_view,0.05210234950745766,0.30317312118605955,258106.7594103035,392815.8734853624,392815.8734853617
CVM-1661_rw_app_clk,0.0,0.0013582439611725884,0.0,-90.21071697666359,
CVM-1661_rw_app_imp,0.010186650677329188,0.016612785386429248,15822.518631540854,16350.591951740154,
OSP-2373_FB_impsclicks,-2.0,0.0,804432.4206340694,0.0,
OSP-2373_email_clk,0.20751036535269637,0.22463782886929926,623523.8087450478,470397.3596324473,470397.3596324485
OSP-2373_email_open,0.23135082469434942,0.4172305421632002,5672245.195437934,6330049.586877121,6330049.586877139
OSP-2373_rw_app_clk,0.08004041786745522,0.1301704760067855,126956.05371191794,101307.60772052257,101307.60772052262
OSP-2373_rw_app_imp,0.3517595066255794,0.7030179961984802,2474831.531805044,2729954.7632795414,2729954.7632795395
OSP-2373_rw_web_oap_clk,0.0023604726715201153,0.01638624469349157,12854.91251286474,14475.110531514336,14475.110531514343
Total,-1.0000988214372784,1.9999852423102007,10192101.063796207,10192687.063681887,10176426.682447141
