,Paths,cnt,people_cnt
0,start > CVM-1661_rw_app_imp_2021-02-24_2021-02-28 > CVM-1661_rw_app_clk_2021-02-24_2021-02-28 > CONVERSION,112,112
1,start > CVM-1661_email_open_2021-02-24_2021-02-28 > CVM-1661_display_imp_2021-02-24_2021-02-28 > null,161,161
2,start > FB_Impression > null,748758,748758
3,start > _AlwaysOn_wow_web_clk_2021-02-24_2021-02-28 > null,2404,2404
4,start > FB_Impression > _AlwaysOn_sem_brand_clk_2021-02-17_2021-02-23 > null,148,148
5,start > FB_Impression > _AlwaysOn_sem_shopping_clk_2021-02-17_2021-02-23 > CONVERSION,142,142
6,start > FB_Impression > _AlwaysOn_wow_web_view_2021-02-17_2021-02-23 > _AlwaysOn_wow_web_clk_2021-02-17_2021-02-23 > CONVERSION,162,162
7,start > _AlwaysOn_sem_shopping_clk_2021-02-24_2021-02-28 > null,3218,3218
8,start > FB_Impression > CVM-1661_rw_app_imp_2021-02-17_2021-02-23 > null,4679,4679
9,start > FB_Impression > _AlwaysOn_wow_web_view_2021-02-24_2021-02-28 > _AlwaysOn_wow_web_clk_2021-02-24_2021-02-28 > null,1035,1035
10,start > FB_Impression > _AlwaysOn_wow_web_view_2021-02-24_2021-02-28 > null,2883,2883
11,start > CVM-1661_email_open_2021-02-24_2021-02-28 > CVM-1661_email_clk_2021-02-24_2021-02-28 > null,2310,2310
12,start > FB_Impression > CVM-1661_rw_app_imp_2021-02-24_2021-02-28 > CONVERSION,1006,1006
13,start > CVM-1661_rw_app_imp_2021-02-17_2021-02-23 > CVM-1661_display_imp_2021-02-24_2021-02-28 > null,206,206
14,start > FB_Impression > CVM-1661_rw_app_imp_2021-02-24_2021-02-28 > CVM-1661_rw_app_clk_2021-02-24_2021-02-28 > null,302,302
15,start > FB_Impression > CVM-1661_rw_app_imp_2021-02-17_2021-02-23 > CONVERSION,702,702
16,start > CVM-1661_email_open_2021-02-17_2021-02-23 > null,3485,3485
17,start > _AlwaysOn_wow_web_clk_2021-02-17_2021-02-23 > CVM-1661_rw_app_imp_2021-02-17_2021-02-23 > null,168,168
18,start > FB_Impression > _AlwaysOn_wow_web_view_2021-02-17_2021-02-23 > CVM-1661_rw_app_imp_2021-02-17_2021-02-23 > null,124,124
19,start > CVM-1661_rw_app_imp_2021-02-24_2021-02-28 > CVM-1661_rw_app_imp_2021-02-17_2021-02-23 > null,3710,3710
20,start > CVM-1661_email_clk_2021-02-24_2021-02-28 > CONVERSION,2295,2295
21,start > _AlwaysOn_wow_web_view_2021-02-17_2021-02-23 > _AlwaysOn_wow_web_clk_2021-02-24_2021-02-28 > null,407,407
23,start > FB_Impression > _AlwaysOn_wow_web_view_2021-02-17_2021-02-23 > _AlwaysOn_wow_web_clk_2021-02-17_2021-02-23 > null,1823,1823
24,start > FB_Impression > _AlwaysOn_wow_web_view_2021-02-24_2021-02-28 > _AlwaysOn_wow_web_view_2021-02-17_2021-02-23 > null,570,570
25,start > _AlwaysOn_sem_shopping_clk_2021-02-17_2021-02-23 > CVM-1661_display_imp_2021-02-17_2021-02-23 > null,101,101
26,start > _AlwaysOn_wow_web_clk_2021-02-17_2021-02-23 > null,4621,4621
27,start > _AlwaysOn_wow_web_view_2021-02-17_2021-02-23 > _AlwaysOn_wow_web_clk_2021-02-24_2021-02-28 > CONVERSION,126,126
28,start > FB_Impression > FB_Click > null,2637,2637
29,start > _AlwaysOn_sem_brand_clk_2021-02-24_2021-02-28 > null,209,209
30,start > CVM-1661_email_clk_2021-02-24_2021-02-28 > null,2170,2170
31,start > _AlwaysOn_google_other_imp_2021-02-17_2021-02-23 > null,166,166
32,start > CVM-1661_rw_app_imp_2021-02-17_2021-02-23 > null,22581,22581
33,start > FB_Impression > CVM-1661_display_imp_2021-02-24_2021-02-28 > null,3114,3114
34,start > CVM-1661_email_open_2021-02-24_2021-02-28 > null,73119,73119
35,start > CVM-1661_rw_app_imp_2021-02-24_2021-02-28 > CVM-1661_email_open_2021-02-24_2021-02-28 > CONVERSION,112,112
36,start > FB_Impression > CVM-1661_rw_app_imp_2021-02-24_2021-02-28 > null,7916,7916
37,start > _AlwaysOn_wow_web_view_2021-02-24_2021-02-28 > _AlwaysOn_wow_web_view_2021-02-17_2021-02-23 > CONVERSION,204,204
38,start > FB_Impression > _AlwaysOn_wow_web_view_2021-02-17_2021-02-23 > CONVERSION,587,587
39,start > CVM-1661_rw_app_imp_2021-02-24_2021-02-28 > CVM-1661_rw_app_clk_2021-02-24_2021-02-28 > null,907,907
40,start > FB_Impression > CVM-1661_email_open_2021-02-17_2021-02-23 > null,197,197
41,start > _AlwaysOn_wow_web_clk_2021-02-17_2021-02-23 > CONVERSION,575,575
42,start > FB_Impression > FB_Click > CONVERSION,273,273
43,start > FB_Impression > CVM-1661_email_open_2021-02-24_2021-02-28 > CVM-1661_email_clk_2021-02-24_2021-02-28 > CONVERSION,358,358
44,start > FB_Impression > _AlwaysOn_wow_web_view_2021-02-24_2021-02-28 > _AlwaysOn_wow_web_view_2021-02-17_2021-02-23 > _AlwaysOn_wow_web_clk_2021-02-17_2021-02-23 > null,157,157
45,start > _AlwaysOn_sem_shopping_clk_2021-02-24_2021-02-28 > CONVERSION,314,314
46,start > CVM-1661_rw_app_imp_2021-02-24_2021-02-28 > CVM-1661_display_imp_2021-02-24_2021-02-28 > null,236,236
47,start > CVM-1661_rw_app_imp_2021-02-17_2021-02-23 > CVM-1661_rw_app_clk_2021-02-24_2021-02-28 > null,303,303
48,start > _AlwaysOn_wow_web_view_2021-02-24_2021-02-28 > _AlwaysOn_wow_web_view_2021-02-17_2021-02-23 > _AlwaysOn_wow_web_clk_2021-02-24_2021-02-28 > null,235,235
49,start > FB_Impression > _AlwaysOn_wow_web_view_2021-02-17_2021-02-23 > null,5730,5730
50,start > FB_Impression > CVM-1661_rw_app_imp_2021-02-24_2021-02-28 > CVM-1661_rw_app_imp_2021-02-17_2021-02-23 > null,1751,1751
51,start > _AlwaysOn_wow_web_view_2021-02-17_2021-02-23 > CVM-1661_display_imp_2021-02-17_2021-02-23 > null,109,109
52,start > FB_Impression > CVM-1661_display_imp_2021-02-17_2021-02-23 > CONVERSION,561,561
53,start > FB_Impression > _AlwaysOn_wow_web_view_2021-02-24_2021-02-28 > _AlwaysOn_wow_web_view_2021-02-17_2021-02-23 > CONVERSION,134,134
54,start > _AlwaysOn_sem_generic_clk_2021-02-17_2021-02-23 > null,145,145
55,start > _AlwaysOn_wow_web_view_2021-02-17_2021-02-23 > _AlwaysOn_wow_web_clk_2021-02-17_2021-02-23 > null,5066,5066
56,start > _AlwaysOn_wow_web_clk_2021-02-24_2021-02-28 > CONVERSION,863,863
57,start > _AlwaysOn_sem_brand_clk_2021-02-17_2021-02-23 > null,876,876
58,start > FB_Impression > FB_Click > FB_Impression > null,4317,4317
59,start > CVM-1661_display_imp_2021-02-24_2021-02-28 > CONVERSION,2898,2898
60,start > FB_Impression > _AlwaysOn_wow_web_view_2021-02-24_2021-02-28 > _AlwaysOn_wow_web_clk_2021-02-24_2021-02-28 > CONVERSION,309,309
61,start > FB_Impression > _AlwaysOn_sem_shopping_clk_2021-02-17_2021-02-23 > null,1398,1398
62,start > _AlwaysOn_wow_web_view_2021-02-24_2021-02-28 > _AlwaysOn_wow_web_clk_2021-02-24_2021-02-28 > CONVERSION,454,454
63,start > _AlwaysOn_wow_web_view_2021-02-17_2021-02-23 > CVM-1661_display_imp_2021-02-24_2021-02-28 > null,184,184
64,start > _AlwaysOn_wow_web_view_2021-02-17_2021-02-23 > _AlwaysOn_wow_web_clk_2021-02-24_2021-02-28 > _AlwaysOn_wow_web_clk_2021-02-17_2021-02-23 > null,245,245
65,start > _AlwaysOn_wow_web_view_2021-02-24_2021-02-28 > CONVERSION,1889,1889
66,start > FB_Click > FB_Impression > null,1518,1518
67,start > CVM-1661_rw_app_imp_2021-02-17_2021-02-23 > CVM-1661_display_imp_2021-02-17_2021-02-23 > null,116,116
68,start > _AlwaysOn_wow_web_view_2021-02-24_2021-02-28 > CVM-1661_email_open_2021-02-24_2021-02-28 > CONVERSION,105,105
69,start > FB_Impression > CVM-1661_display_imp_2021-02-17_2021-02-23 > null,1965,1965
70,start > _AlwaysOn_wow_web_view_2021-02-17_2021-02-23 > _AlwaysOn_sem_shopping_clk_2021-02-17_2021-02-23 > null,267,267
71,start > FB_Click > FB_Impression > CONVERSION,162,162
72,start > FB_Impression > CVM-1661_rw_app_imp_2021-02-24_2021-02-28 > CVM-1661_rw_app_imp_2021-02-17_2021-02-23 > CONVERSION,225,225
73,start > CVM-1661_rw_app_imp_2021-02-24_2021-02-28 > CVM-1661_rw_app_imp_2021-02-17_2021-02-23 > CVM-1661_rw_app_clk_2021-02-24_2021-02-28 > null,185,185
74,start > _AlwaysOn_wow_web_view_2021-02-24_2021-02-28 > null,14434,14434
75,start > _AlwaysOn_sem_shopping_clk_2021-02-17_2021-02-23 > CVM-1661_rw_app_imp_2021-02-24_2021-02-28 > null,158,158
76,start > _AlwaysOn_wow_web_view_2021-02-24_2021-02-28 > _AlwaysOn_wow_web_view_2021-02-17_2021-02-23 > null,1596,1596
77,start > FB_Impression > CVM-1661_display_imp_2021-02-24_2021-02-28 > CVM-1661_display_imp_2021-02-17_2021-02-23 > CONVERSION,135,135
78,start > _AlwaysOn_wow_web_view_2021-02-24_2021-02-28 > _AlwaysOn_wow_web_view_2021-02-17_2021-02-23 > _AlwaysOn_wow_web_clk_2021-02-17_2021-02-23 > null,239,239
79,start > _AlwaysOn_wow_web_view_2021-02-17_2021-02-23 > CVM-1661_rw_app_imp_2021-02-24_2021-02-28 > null,226,226
80,start > CVM-1661_rw_app_clk_2021-02-24_2021-02-28 > CONVERSION,205,205
81,start > _AlwaysOn_wow_web_view_2021-02-17_2021-02-23 > CVM-1661_rw_app_imp_2021-02-17_2021-02-23 > null,214,214
82,start > FB_Impression > FB_Click > FB_Impression > CONVERSION,422,422
83,start > CVM-1661_display_imp_2021-02-24_2021-02-28 > CVM-1661_display_imp_2021-02-17_2021-02-23 > null,1218,1218
84,start > _AlwaysOn_wow_web_view_2021-02-17_2021-02-23 > CVM-1661_email_open_2021-02-24_2021-02-28 > null,136,136
85,start > FB_Impression > _AlwaysOn_wow_web_view_2021-02-17_2021-02-23 > CVM-1661_rw_app_imp_2021-02-24_2021-02-28 > null,120,120
86,start > FB_Impression > _AlwaysOn_sem_shopping_clk_2021-02-24_2021-02-28 > null,573,573
87,start > CVM-1661_rw_app_imp_2021-02-24_2021-02-28 > CVM-1661_rw_app_imp_2021-02-17_2021-02-23 > CONVERSION,474,474
88,start > FB_Impression > CVM-1661_display_imp_2021-02-24_2021-02-28 > CVM-1661_display_imp_2021-02-17_2021-02-23 > null,489,489
89,start > CVM-1661_email_open_2021-02-24_2021-02-28 > CVM-1661_email_open_2021-02-17_2021-02-23 > CONVERSION,149,149
90,start > FB_Click > null,912,912
91,start > CVM-1661_email_open_2021-02-24_2021-02-28 > CVM-1661_email_open_2021-02-17_2021-02-23 > null,279,279
92,start > _AlwaysOn_wow_web_view_2021-02-24_2021-02-28 > CVM-1661_rw_app_imp_2021-02-24_2021-02-28 > null,119,119
93,start > _AlwaysOn_sem_shopping_clk_2021-02-17_2021-02-23 > null,7811,7811
94,start > CVM-1661_display_imp_2021-02-17_2021-02-23 > null,10604,10604
95,start > CVM-1661_rw_app_imp_2021-02-24_2021-02-28 > CVM-1661_email_open_2021-02-24_2021-02-28 > null,225,225
96,start > _AlwaysOn_wow_web_view_2021-02-17_2021-02-23 > null,31328,31328
97,start > _AlwaysOn_wow_web_view_2021-02-24_2021-02-28 > _AlwaysOn_wow_web_clk_2021-02-24_2021-02-28 > null,2275,2275
98,start > CVM-1661_rw_app_imp_2021-02-24_2021-02-28 > CONVERSION,2831,2831
99,start > CVM-1661_rw_app_clk_2021-02-17_2021-02-23 > null,269,269
100,start > FB_Impression > _AlwaysOn_wow_web_view_2021-02-24_2021-02-28 > CONVERSION,870,870
101,start > CVM-1661_rw_app_imp_2021-02-17_2021-02-23 > CONVERSION,2548,2548
102,start > _AlwaysOn_wow_web_view_2021-02-17_2021-02-23 > _AlwaysOn_wow_web_clk_2021-02-17_2021-02-23 > CONVERSION,345,345
103,start > _AlwaysOn_wow_web_view_2021-02-17_2021-02-23 > CONVERSION,1590,1590
104,start > CVM-1661_email_open_2021-02-17_2021-02-23 > CONVERSION,1058,1058
105,start > CVM-1661_rw_app_imp_2021-02-24_2021-02-28 > null,35931,35931
106,start > CVM-1661_email_open_2021-02-24_2021-02-28 > CONVERSION,24913,24913
107,start > FB_Impression > _AlwaysOn_wow_web_view_2021-02-24_2021-02-28 > _AlwaysOn_wow_web_view_2021-02-17_2021-02-23 > _AlwaysOn_wow_web_clk_2021-02-24_2021-02-28 > null,130,130
108,start > CVM-1661_email_open_2021-02-24_2021-02-28 > CVM-1661_email_clk_2021-02-24_2021-02-28 > CONVERSION,1283,1283
109,start > FB_Impression > CVM-1661_email_open_2021-02-24_2021-02-28 > CONVERSION,6562,6562
110,start > FB_Click > CONVERSION,101,101
111,start > FB_Impression > CVM-1661_email_open_2021-02-24_2021-02-28 > CVM-1661_email_clk_2021-02-24_2021-02-28 > null,434,434
112,start > CVM-1661_rw_app_imp_2021-02-17_2021-02-23 > CVM-1661_email_open_2021-02-24_2021-02-28 > null,152,152
113,start > CVM-1661_rw_app_imp_2021-02-24_2021-02-28 > CVM-1661_display_imp_2021-02-17_2021-02-23 > null,131,131
114,start > CVM-1661_display_imp_2021-02-24_2021-02-28 > null,16484,16484
115,start > FB_Impression > CVM-1661_display_imp_2021-02-24_2021-02-28 > CONVERSION,961,961
116,start > CVM-1661_rw_app_imp_2021-02-17_2021-02-23 > CVM-1661_rw_app_clk_2021-02-17_2021-02-23 > null,452,452
117,start > CVM-1661_display_imp_2021-02-24_2021-02-28 > CVM-1661_display_imp_2021-02-17_2021-02-23 > CONVERSION,264,264
118,start > FB_Impression > CONVERSION,62413,62413
119,start > FB_Impression > CVM-1661_email_open_2021-02-24_2021-02-28 > null,8844,8844
120,start > _AlwaysOn_sem_shopping_clk_2021-02-17_2021-02-23 > CVM-1661_display_imp_2021-02-24_2021-02-28 > null,171,171
121,start > CVM-1661_display_imp_2021-02-17_2021-02-23 > CONVERSION,1886,1886
122,start > _AlwaysOn_sem_shopping_clk_2021-02-24_2021-02-28 > CVM-1661_display_imp_2021-02-24_2021-02-28 > null,109,109
123,start > CVM-1661_rw_app_clk_2021-02-24_2021-02-28 > null,903,903
124,start > FB_Impression > _AlwaysOn_sem_shopping_clk_2021-02-24_2021-02-28 > CONVERSION,110,110
125,start > FB_Impression > FB_Click > FB_Impression > FB_Click > null,101,101
126,start > _AlwaysOn_sem_shopping_clk_2021-02-17_2021-02-23 > CONVERSION,383,383
127,start > _AlwaysOn_sem_shopping_clk_2021-02-24_2021-02-28 > _AlwaysOn_sem_shopping_clk_2021-02-17_2021-02-23 > null,149,149
