,channel_name,total_conversions,total_conversion_value,normalised_conversion_value
0,CVM-1661_display_imp_2021-02-10_2021-02-16,2900.3070329838524,2900.3070329838524,0.025560572434376674
1,CVM-1661_display_imp_2021-02-17_2021-02-21,6547.399709191092,6547.399709191092,0.05770260962730543
2,CVM-1661_email_clk_2021-02-17_2021-02-21,4211.5236856202655,4211.5236856202655,0.037116400091834395
3,CVM-1661_email_open_2021-02-10_2021-02-16,625.2158873498125,625.2158873498125,0.005510063518787786
4,CVM-1661_email_open_2021-02-17_2021-02-21,20493.1874186883,20493.1874186883,0.18060763756026632
5,CVM-1661_rw_app_clk_2021-02-10_2021-02-16,0.0,0.0,0.0
6,CVM-1661_rw_app_clk_2021-02-17_2021-02-21,373.39282161169353,373.39282161169353,0.0032907323792760383
7,CVM-1661_rw_app_imp_2021-02-10_2021-02-16,3265.0163006045764,3265.0163006045764,0.028774776153669548
8,CVM-1661_rw_app_imp_2021-02-17_2021-02-21,3447.3709344149383,3447.3709344149383,0.030381878013315985
9,FB_Click,720.7349812504783,720.7349812504783,0.006351878778602587
10,FB_Impression,60784.87793678733,60784.87793678733,0.5357006198821459
11,_AlwaysOn_sem_brand_clk_2021-02-10_2021-02-16,0.0,0.0,0.0
12,_AlwaysOn_sem_shopping_clk_2021-02-10_2021-02-16,529.6967934491466,529.6967934491466,0.004668248258972984
13,_AlwaysOn_sem_shopping_clk_2021-02-17_2021-02-21,573.1145634039948,573.1145634039948,0.005050891558888804
14,_AlwaysOn_wow_web_view_2021-02-10_2021-02-16,2908.9905869748222,2908.9905869748222,0.02563710109435984
15,_AlwaysOn_wow_web_clk_2021-02-10_2021-02-16,1076.7606948802327,1076.7606948802327,0.009489553837912298
16,_AlwaysOn_wow_web_view_2021-02-17_2021-02-21,3473.4215963878473,3473.4215963878473,0.03061146399326548
17,_AlwaysOn_wow_web_clk_2021-02-17_2021-02-21,1536.9890564016225,1536.9890564016225,0.013545572817019975
18,_AlwaysOn_google_other_imp_2021-02-10_2021-02-16,0.0,0.0,0.0
19,_AlwaysOn_google_other_imp_2021-02-17_2021-02-21,0.0,0.0,0.0
20,_AlwaysOn_sem_brand_clk_2021-02-17_2021-02-21,0.0,0.0,0.0
21,_AlwaysOn_sem_generic_clk_2021-02-10_2021-02-16,0.0,0.0,0.0
