,channel_name,total_conversions,total_conversion_value,normalised_conversion_value
0,CVM-1661_email_clk_2021-04-28_2021-05-02,909.6237623762376,909.6237623762376,0.0564002828854314
1,CVM-1661_email_open_2021-04-21_2021-04-27,243.32673267326732,243.32673267326732,0.015087223008015087
2,CVM-1661_email_open_2021-04-28_2021-05-02,4647.920792079208,4647.920792079208,0.2881895332390382
3,CVM-1661_rw_app_clk_2021-04-21_2021-04-27,0.0,0.0,0.0
4,CVM-1661_rw_app_clk_2021-04-28_2021-05-02,268.03960396039605,268.03960396039605,0.01661951909476662
5,CVM-1661_rw_app_imp_2021-04-21_2021-04-27,1412.4356435643565,1412.4356435643565,0.08757661480433758
6,CVM-1661_rw_app_imp_2021-04-28_2021-05-02,2161.425742574257,2161.425742574257,0.134016973125884
7,_AlwaysOn_display_imp_2021-04-21_2021-04-27,0.0,0.0,0.0
8,_AlwaysOn_google_other_imp_2021-04-21_2021-04-27,0.0,0.0,0.0
9,_AlwaysOn_sem_brand_clk_2021-04-21_2021-04-27,0.0,0.0,0.0
10,_AlwaysOn_sem_brand_clk_2021-04-28_2021-05-02,0.0,0.0,0.0
11,_AlwaysOn_sem_generic_clk_2021-04-21_2021-04-27,0.0,0.0,0.0
12,_AlwaysOn_sem_generic_clk_2021-04-28_2021-05-02,0.0,0.0,0.0
13,_AlwaysOn_sem_other_clk_2021-04-21_2021-04-27,0.0,0.0,0.0
14,_AlwaysOn_sem_other_clk_2021-04-28_2021-05-02,0.0,0.0,0.0
15,_AlwaysOn_sem_shopping_clk_2021-04-21_2021-04-27,302.25742574257424,302.25742574257424,0.01874115983026874
16,_AlwaysOn_sem_shopping_clk_2021-04-28_2021-05-02,496.15841584158414,496.15841584158414,0.030763790664780764
17,_AlwaysOn_video_imp_2021-04-21_2021-04-27,0.0,0.0,0.0
18,_AlwaysOn_wow_web_clk_2021-04-21_2021-04-27,577.9009900990098,577.9009900990098,0.03583215464403583
19,_AlwaysOn_wow_web_clk_2021-04-28_2021-05-02,1016.0792079207921,1016.0792079207921,0.063000942951438
20,_AlwaysOn_wow_web_view_2021-04-21_2021-04-27,1724.19801980198,1724.19801980198,0.1069071192833569
21,_AlwaysOn_wow_web_view_2021-04-28_2021-05-02,2368.633663366337,2368.633663366337,0.14686468646864687
