,campaign_code,campaign_start_date,channel,medium,event,channel_event,channel_prob_norm_AL,channel_prob_norm_shanglin,attributed_inc_sales_AL,attributed_inc_sales_shanglin
0,CVM-1661,2021-02-15,CVM-1661_FB,CVM-1661_FB,CVM-1661_FB_impsclicks,,-1.0,,1901791.161273226,
1,CVM-1661,2021-02-17,CVM-1661_FB,CVM-1661_FB,CVM-1661_FB_impsclicks,,,0.3473264283777795,,27995.1693611347
2,CVM-1661,2021-02-17,CVM-1661_display,CVM-1661_display,CVM-1661_display_imp,CVM-1661_display_imp,0.04409828872312413,0.07208015000550613,10846.616111762582,8719.034493165786
3,CVM-1661,2021-02-17,CVM-1661_email,CVM-1661_email,CVM-1661_email_clk,CVM-1661_email_clk,,0.051901246717267875,,320.99164321175556
4,CVM-1661,2021-02-17,CVM-1661_email,CVM-1661_email,CVM-1661_email_open,CVM-1661_email_open,0.020403685827117067,0.5440362825542188,35897.62813246978,31655.289248847774
5,CVM-1661,2021-02-17,CVM-1661_email,CVM-1661_email,CVM-1661_email_open,DEFAULT,,,257348.29638241418,213616.7622822401
6,CVM-1661,2021-02-17,CVM-1661_rw_app,CVM-1661_rw_app,CVM-1661_rw_app_clk,CVM-1661_rw_app_clk,,0.007299255696923486,,54.6664428910992
7,CVM-1661,2021-02-17,CVM-1661_rw_app,CVM-1661_rw_app,CVM-1661_rw_app_imp,CVM-1661_rw_app_imp,0.06735410267661256,0.06478089431019594,10009.033651141955,7364.142726701043
8,CVM-1661,2021-02-17,AlwaysOn_sem,AlwaysOn_sem_brand,AlwaysOn_sem_brand_clk,_AlwaysOn_sem_brand_clk,,0.006860998369525162,,75.20832513100416
9,CVM-1661,2021-02-17,AlwaysOn_sem,AlwaysOn_sem_generic,AlwaysOn_sem_generic_clk,_AlwaysOn_sem_generic_clk,,0.0009791943568470656,,16.148368244180702
10,CVM-1661,2021-02-17,AlwaysOn_sem,AlwaysOn_sem_shopping,AlwaysOn_sem_shopping_clk,_AlwaysOn_sem_shopping_clk,0.010092145677928875,0.020585210113519263,551.5384419840676,549.2436484910952
11,CVM-1661,2021-02-17,AlwaysOn_wow_web,AlwaysOn_wow_web,AlwaysOn_wow_web_clk,_AlwaysOn_wow_web_clk,0.013163668275559339,0.06012230240042273,709.8314885266037,797.5593127222048
12,CVM-1661,2021-02-17,AlwaysOn_wow_web,AlwaysOn_wow_web,AlwaysOn_wow_web_view,_AlwaysOn_wow_web_view,0.05726195699868368,0.1713485618412048,11768.893619601018,9381.053469603594
13,CVM-1661,2021-02-24,CVM-1661_FB,CVM-1661_FB,CVM-1661_FB_impsclicks,,,0.45080595311738786,,129934.89485595518
14,CVM-1661,2021-02-24,CVM-1661_FB,CVM-1661_FB,CVM-1661_FB_impsclicks,DEFAULT,,0.0,,1408137.6415795856
15,CVM-1661,2021-02-24,CVM-1661_display,CVM-1661_display,CVM-1661_display_imp,CVM-1661_display_imp,0.06055287406757346,0.010151273555471097,24418.565707724272,18878.520663925294
16,CVM-1661,2021-02-24,CVM-1661_email,CVM-1661_email,CVM-1661_email_clk,CVM-1661_email_clk,0.050680122860903905,0.05483528847568124,1143.5448540263033,954.8236623765407
17,CVM-1661,2021-02-24,CVM-1661_email,CVM-1661_email,CVM-1661_email_open,CVM-1661_email_open,0.5039491004826684,0.5938940565417002,178121.4099918858,162526.63504272484
18,CVM-1661,2021-02-24,CVM-1661_email,CVM-1661_email,CVM-1661_email_open,DEFAULT,,,1102364.8845219486,989377.3995257776
19,CVM-1661,2021-02-24,CVM-1661_rw_app,CVM-1661_rw_app,CVM-1661_rw_app_clk,CVM-1661_rw_app_clk,0.0028521281263711442,0.004702818299577155,102.18450470164538,147.37853551128694
20,CVM-1661,2021-02-24,CVM-1661_rw_app,CVM-1661_rw_app,CVM-1661_rw_app_imp,CVM-1661_rw_app_imp,0.06910925844668711,0.05925551057467216,35875.618941234236,29559.741160606114
21,CVM-1661,2021-02-24,AlwaysOn_sem,AlwaysOn_sem_brand,AlwaysOn_sem_brand_clk,_AlwaysOn_sem_brand_clk,,0.00290631092498898,,615.1090158680005
22,CVM-1661,2021-02-24,AlwaysOn_sem,AlwaysOn_sem_shopping,AlwaysOn_sem_shopping_clk,_AlwaysOn_sem_shopping_clk,0.008775778850372963,0.018412510134735494,2062.750690538768,2544.880312010066
23,CVM-1661,2021-02-24,AlwaysOn_wow_web,AlwaysOn_wow_web,AlwaysOn_wow_web_clk,_AlwaysOn_wow_web_clk,0.027643703378674802,0.06641178770555128,4050.6275744305676,4151.302793563122
24,CVM-1661,2021-02-24,AlwaysOn_wow_web,AlwaysOn_wow_web,AlwaysOn_wow_web_view,_AlwaysOn_wow_web_view,0.06406318560772256,0.1894245308419701,39538.48897023476,45520.8522055979
